Junior/111-2/Soc/simple_practice/rom/wave.vcd
$version Generated by VerilatedVcd $end
$date Sat Mar  4 00:07:50 2023
 $end
$timescale  10s $end

 $scope module top $end
  $var wire 32 D addr_i [31:0] $end
  $var wire  1 C ce_i $end
  $var wire 32 E inst_o [31:0] $end
  $scope module rom $end
   $var wire 32 H MADDR_WIDTH [31:0] $end
   $var wire 32 G MEM_SIZE [31:0] $end
   $var wire 32 G XLEN [31:0] $end
   $var wire  5 F addr4 [4:0] $end
   $var wire 32 D addr_i [31:0] $end
   $var wire  1 C ce_i $end
   $var wire 32 E inst_o [31:0] $end
   $var wire  8 # mem(0) [7:0] $end
   $var wire  8 $ mem(1) [7:0] $end
   $var wire  8 - mem(10) [7:0] $end
   $var wire  8 . mem(11) [7:0] $end
   $var wire  8 / mem(12) [7:0] $end
   $var wire  8 0 mem(13) [7:0] $end
   $var wire  8 1 mem(14) [7:0] $end
   $var wire  8 2 mem(15) [7:0] $end
   $var wire  8 3 mem(16) [7:0] $end
   $var wire  8 4 mem(17) [7:0] $end
   $var wire  8 5 mem(18) [7:0] $end
   $var wire  8 6 mem(19) [7:0] $end
   $var wire  8 % mem(2) [7:0] $end
   $var wire  8 7 mem(20) [7:0] $end
   $var wire  8 8 mem(21) [7:0] $end
   $var wire  8 9 mem(22) [7:0] $end
   $var wire  8 : mem(23) [7:0] $end
   $var wire  8 ; mem(24) [7:0] $end
   $var wire  8 < mem(25) [7:0] $end
   $var wire  8 = mem(26) [7:0] $end
   $var wire  8 > mem(27) [7:0] $end
   $var wire  8 ? mem(28) [7:0] $end
   $var wire  8 @ mem(29) [7:0] $end
   $var wire  8 & mem(3) [7:0] $end
   $var wire  8 A mem(30) [7:0] $end
   $var wire  8 B mem(31) [7:0] $end
   $var wire  8 ' mem(4) [7:0] $end
   $var wire  8 ( mem(5) [7:0] $end
   $var wire  8 ) mem(6) [7:0] $end
   $var wire  8 * mem(7) [7:0] $end
   $var wire  8 + mem(8) [7:0] $end
   $var wire  8 , mem(9) [7:0] $end
  $upscope $end
 $upscope $end
$enddefinitions $end


#0
b00010010 #
b00110100 $
b01010110 %
b01111000 &
b10010000 '
b10101011 (
b11001101 )
b00000000 *
b00000000 +
b00000000 ,
b00000000 -
b00000000 .
b00000000 /
b00000000 0
b00000000 1
b00000000 2
b00000000 3
b00000000 4
b00000000 5
b00000000 6
b00000000 7
b00000000 8
b00000000 9
b00000000 :
b00000000 ;
b00000000 <
b00000000 =
b00000000 >
b00000000 ?
b00000000 @
b00000000 A
b00000000 B
1C
b00000000000000000000000000000000 D
b00010010001101000101011001111000 E
b00000 F
b00000000000000000000000000100000 G
b00000000000000000000000000000101 H
#1
b00000000000000000000000000000001 D
#2
b00000000000000000000000000000010 D
#3
b00000000000000000000000000000011 D
#4
b00000000000000000000000000000100 D
b10010000101010111100110100000000 E
b00100 F
#5
b00000000000000000000000000000101 D
#6
b00000000000000000000000000000110 D
#7
b00000000000000000000000000000111 D
#8
b00000000000000000000000000001000 D
b00000000000000000000000000000000 E
b01000 F
#9
b00000000000000000000000000001001 D
#10
b00000000000000000000000000001010 D
#11
b00000000000000000000000000001011 D
#12
b00000000000000000000000000001100 D
b01100 F
#13
b00000000000000000000000000001101 D
#14
b00000000000000000000000000001110 D
#15
b00000000000000000000000000001111 D
#16
b00000000000000000000000000010000 D
b10000 F
#17
b00000000000000000000000000010001 D
#18
b00000000000000000000000000010010 D
