Junior/111-2/Soc/riscv_core/wave.vcd
$version Generated by VerilatedVcd $end
$timescale 1s $end

 $scope module top $end
  $var wire  1 o! clk_i $end
  $var wire  1 p! halt_o $end
  $var wire  1 n! rst_i $end
  $scope module test_top $end
   $var wire  1 V ce_wire $end
   $var wire  1 o! clk_i $end
   $var wire  1 % ctrl_flush_jump_o $end
   $var wire 32 & ctrl_new_pc_o [31:0] $end
   $var wire  6 $ ctrl_stall_o [5:0] $end
   $var wire 32 & exe_jump_addr_o [31:0] $end
   $var wire  1 % exe_jump_enable_o $end
   $var wire 32 5 exe_mem_addr_o [31:0] $end
   $var wire 32 6 exe_mem_data_o [31:0] $end
   $var wire 32 e exe_mem_mem_addr_o [31:0] $end
   $var wire 32 f exe_mem_mem_data_o [31:0] $end
   $var wire  4 h exe_mem_mem_op_o [3:0] $end
   $var wire  1 g exe_mem_mem_we_o $end
   $var wire  4 8 exe_mem_op_o [3:0] $end
   $var wire  5 b exe_mem_reg_waddr_o [4:0] $end
   $var wire 32 d exe_mem_reg_wdata_o [31:0] $end
   $var wire  1 c exe_mem_reg_we_o $end
   $var wire  1 7 exe_mem_we_o $end
   $var wire  5 2 exe_reg_waddr_o [4:0] $end
   $var wire 32 4 exe_reg_wdata_o [31:0] $end
   $var wire  1 3 exe_reg_we_o $end
   $var wire  1 9 exe_stallreq_o $end
   $var wire  1 T halt_o $end
   $var wire 32 a id_exe_inst_addr_o [31:0] $end
   $var wire  1 Z id_exe_inst_is_load_o $end
   $var wire 32 ` id_exe_inst_o [31:0] $end
   $var wire 32 \ id_exe_op1_o [31:0] $end
   $var wire 32 ] id_exe_op2_o [31:0] $end
   $var wire  5 [ id_exe_rd_o [4:0] $end
   $var wire  5 _ id_exe_reg_waddr_o [4:0] $end
   $var wire  1 ^ id_exe_reg_we_o $end
   $var wire 32 W id_inst_addr_o [31:0] $end
   $var wire 32 ' id_inst_o [31:0] $end
   $var wire 32 ( id_op1_o [31:0] $end
   $var wire 32 ) id_op2_o [31:0] $end
   $var wire  5 , id_reg1_addr_o [4:0] $end
   $var wire  1 . id_reg1_re_o $end
   $var wire  5 - id_reg2_addr_o [4:0] $end
   $var wire  1 / id_reg2_re_o $end
   $var wire  5 + id_reg_waddr_o [4:0] $end
   $var wire  1 * id_reg_we_o $end
   $var wire  1 Y id_stallreq_o $end
   $var wire 32 W if_id_inst_addr_o [31:0] $end
   $var wire 32 X if_id_inst_o [31:0] $end
   $var wire 32 U if_inst_addr_o [31:0] $end
   $var wire 32 q! if_inst_o [31:0] $end
   $var wire  1 T mem_halt_o $end
   $var wire 32 = mem_ram_addr_o [31:0] $end
   $var wire 32 ? mem_ram_data_o [31:0] $end
   $var wire  1 > mem_ram_w_request_o $end
   $var wire  5 : mem_reg_waddr_o [4:0] $end
   $var wire 32 < mem_reg_wdata_o [31:0] $end
   $var wire  1 ; mem_reg_we_o $end
   $var wire  5 i mem_wb_reg_waddr_o [4:0] $end
   $var wire 32 k mem_wb_reg_wdata_o [31:0] $end
   $var wire  1 j mem_wb_reg_we_o $end
   $var wire 32 U pc_wire [31:0] $end
   $var wire 32 @ ram_data_o [31:0] $end
   $var wire 32 0 reg1_data_o [31:0] $end
   $var wire 32 1 reg2_data_o [31:0] $end
   $var wire  1 n! rst_i $end
   $scope module ctrl0 $end
    $var wire  1 % flush_jump_o $end
    $var wire 32 & jump_addr_i [31:0] $end
    $var wire  1 % jump_enable_i $end
    $var wire 32 & new_pc_o [31:0] $end
    $var wire  1 n! rst_i $end
    $var wire  6 $ stall_o [5:0] $end
    $var wire  1 9 stallreq_from_exe_i $end
    $var wire  1 Y stallreq_from_id_i $end
   $upscope $end
   $scope module data_ram0 $end
    $var wire 32 z! RAM_ADDR_WIDTH [31:0] $end
    $var wire 32 y! RAM_SIZE [31:0] $end
    $var wire 21 S addr4 [20:0] $end
    $var wire 32 = addr_i [31:0] $end
    $var wire  1 o! clk_i $end
    $var wire 32 ? data_i [31:0] $end
    $var wire 32 @ data_o [31:0] $end
    $var wire  1 V inst_ce_i $end
    $var wire 32 q! inst_o [31:0] $end
    $var wire 32 U pc_i [31:0] $end
    $var wire 21 m! rom_addr4 [20:0] $end
    $var wire  1 n! rst_i $end
    $var wire  1 > we_i $end
   $upscope $end
   $scope module exe0 $end
    $var wire 32 A a_o [31:0] $end
    $var wire 32 B b_o [31:0] $end
    $var wire  1 o! clk_i $end
    $var wire  1 v div_ready_i $end
    $var wire  1 D div_req_o $end
    $var wire 32 t div_result_i [31:0] $end
    $var wire  3 m funct3 [2:0] $end
    $var wire  7 n funct7 [6:0] $end
    $var wire 32 a inst_addr_i [31:0] $end
    $var wire 32 ` inst_i [31:0] $end
    $var wire 64 F invert_result [63:0] $end
    $var wire 32 H invert_result_div [31:0] $end
    $var wire  1 p isType_m $end
    $var wire  1 o isType_r $end
    $var wire  1 y is_a_neg $end
    $var wire  1 z is_b_neg $end
    $var wire  1 E is_div_q_i $end
    $var wire 32 & jump_addr_o [31:0] $end
    $var wire  1 % jump_enable_o $end
    $var wire 32 q load_addr_offset [31:0] $end
    $var wire 32 5 mem_addr_o [31:0] $end
    $var wire 32 6 mem_data_o [31:0] $end
    $var wire  4 8 mem_op_o [3:0] $end
    $var wire  1 7 mem_we_o $end
    $var wire  1 u mult_ready_i $end
    $var wire  1 C mult_req_o $end
    $var wire 64 w mult_result_i [63:0] $end
    $var wire  1 s op1_eq_op2 $end
    $var wire 32 \ op1_i [31:0] $end
    $var wire 32 ] op2_i [31:0] $end
    $var wire  7 l opcode [6:0] $end
    $var wire 32 a pc [31:0] $end
    $var wire  5 _ reg_waddr_i [4:0] $end
    $var wire  5 2 reg_waddr_o [4:0] $end
    $var wire 32 4 reg_wdata_o [31:0] $end
    $var wire  1 ^ reg_we_i $end
    $var wire  1 3 reg_we_o $end
    $var wire  1 n! rst_i $end
    $var wire  1 { signed_adjust $end
    $var wire  1 9 stallreq_o $end
    $var wire 32 r store_addr_offset [31:0] $end
    $scope module div0 $end
     $var wire  3 &! S [2:0] $end
     $var wire  3 t! S_CALC [2:0] $end
     $var wire  3 u! S_DONE [2:0] $end
     $var wire  3 s! S_IDLE [2:0] $end
     $var wire  3 K S_next [2:0] $end
     $var wire 32 r! XLEN [31:0] $end
     $var wire 32 A a_i [31:0] $end
     $var wire 32 B b_i [31:0] $end
     $var wire  1 o! clk_i $end
     $var wire  6 #! cnt [5:0] $end
     $var wire  1 '! div_sub $end
     $var wire  1 I is_a_zero $end
     $var wire  1 J is_b_zero $end
     $var wire  1 | is_calc_done $end
     $var wire  1 E is_q_i $end
     $var wire 32 A op_a [31:0] $end
     $var wire 32 B op_b [31:0] $end
     $var wire 32 $! quotient [31:0] $end
     $var wire  1 v ready_o $end
     $var wire 32 } reg32 [31:0] $end
     $var wire 32 %! remainder [31:0] $end
     $var wire  1 D req_i $end
     $var wire 65 ~ result [64:0] $end
     $var wire 32 t result_o [31:0] $end
     $var wire 65 *! result_tmp [64:0] $end
     $var wire  1 n! rst_i $end
     $var wire 33 (! sub_tmp [32:0] $end
    $upscope $end
    $scope module mul0 $end
     $var wire  3 3! S [2:0] $end
     $var wire  3 t! S_CALC [2:0] $end
     $var wire  3 u! S_DONE [2:0] $end
     $var wire  3 s! S_IDLE [2:0] $end
     $var wire  3 N S_nxt [2:0] $end
     $var wire 32 r! XLEN [31:0] $end
     $var wire 32 A a_i [31:0] $end
     $var wire 32 .! adder_opa [31:0] $end
     $var wire 32 5! adder_opb [31:0] $end
     $var wire 33 6! adder_tmp [32:0] $end
     $var wire 32 B b_i [31:0] $end
     $var wire  1 o! clk_i $end
     $var wire  6 2! cnt [5:0] $end
     $var wire  1 L is_a_zero $end
     $var wire  1 M is_b_zero $end
     $var wire  1 -! is_calc_done $end
     $var wire  1 4! mul_add $end
     $var wire 32 A op_a [31:0] $end
     $var wire 32 B op_b [31:0] $end
     $var wire  1 u ready_o $end
     $var wire 32 .! reg32 [31:0] $end
     $var wire  1 C req_i $end
     $var wire 65 /! result [64:0] $end
     $var wire 64 w result_o [63:0] $end
     $var wire 65 8! result_tmp [64:0] $end
     $var wire  1 n! rst_i $end
    $upscope $end
   $upscope $end
   $scope module exe_mem0 $end
    $var wire  1 o! clk_i $end
    $var wire 32 5 mem_addr_i [31:0] $end
    $var wire 32 e mem_addr_o [31:0] $end
    $var wire 32 6 mem_data_i [31:0] $end
    $var wire 32 f mem_data_o [31:0] $end
    $var wire  4 8 mem_op_i [3:0] $end
    $var wire  4 h mem_op_o [3:0] $end
    $var wire  1 7 mem_we_i $end
    $var wire  1 g mem_we_o $end
    $var wire  5 2 reg_waddr_i [4:0] $end
    $var wire  5 b reg_waddr_o [4:0] $end
    $var wire 32 4 reg_wdata_i [31:0] $end
    $var wire 32 d reg_wdata_o [31:0] $end
    $var wire  1 3 reg_we_i $end
    $var wire  1 c reg_we_o $end
    $var wire  1 n! rst_i $end
    $var wire  6 $ stall_i [5:0] $end
   $upscope $end
   $scope module id0 $end
    $var wire  5 [ exe_rd_i [4:0] $end
    $var wire  5 2 exe_reg_waddr_i [4:0] $end
    $var wire 32 4 exe_reg_wdata_i [31:0] $end
    $var wire  1 3 exe_reg_we_i $end
    $var wire 32 0 i_op1_o [31:0] $end
    $var wire 32 B! i_op2_o [31:0] $end
    $var wire  5 =! i_reg1_raddr_o [4:0] $end
    $var wire  1 w! i_reg1_re_o $end
    $var wire  5 v! i_reg2_raddr_o [4:0] $end
    $var wire  1 x! i_reg2_re_o $end
    $var wire  5 D! i_reg_waddr_o [4:0] $end
    $var wire  1 w! i_reg_we_o $end
    $var wire 32 W inst_addr_i [31:0] $end
    $var wire 32 W inst_addr_o [31:0] $end
    $var wire 32 X inst_i [31:0] $end
    $var wire 32 ' inst_o [31:0] $end
    $var wire  1 Y is_load_hazard $end
    $var wire  5 : mem_reg_waddr_i [4:0] $end
    $var wire 32 < mem_reg_wdata_i [31:0] $end
    $var wire  1 ; mem_reg_we_i $end
    $var wire 32 ( op1_o [31:0] $end
    $var wire 32 O op1_o_final [31:0] $end
    $var wire 32 ) op2_o [31:0] $end
    $var wire 32 P op2_o_final [31:0] $end
    $var wire  7 ;! opcode [6:0] $end
    $var wire  1 Z pre_inst_is_load_i $end
    $var wire 32 Q r_op1_o [31:0] $end
    $var wire 32 R r_op2_o [31:0] $end
    $var wire  5 >! r_reg1_raddr_o [4:0] $end
    $var wire  1 @! r_reg1_re_o $end
    $var wire  5 ?! r_reg2_raddr_o [4:0] $end
    $var wire  1 A! r_reg2_re_o $end
    $var wire  5 E! r_reg_waddr_o [4:0] $end
    $var wire  1 C! r_reg_we_o $end
    $var wire  5 <! rd [4:0] $end
    $var wire  5 , reg1_raddr_o [4:0] $end
    $var wire 32 0 reg1_rdata_i [31:0] $end
    $var wire  1 . reg1_re_o $end
    $var wire  5 - reg2_raddr_o [4:0] $end
    $var wire 32 1 reg2_rdata_i [31:0] $end
    $var wire  1 / reg2_re_o $end
    $var wire  5 + reg_waddr_o [4:0] $end
    $var wire  1 * reg_we_o $end
    $var wire  5 F! rs1 [4:0] $end
    $var wire  5 G! rs2 [4:0] $end
    $var wire  1 n! rst_i $end
    $var wire  1 Y stallreq_o $end
    $scope module inst_type_i $end
     $var wire  3 H! funct3 [2:0] $end
     $var wire 32 X inst_i [31:0] $end
     $var wire 32 0 op1_o [31:0] $end
     $var wire 32 B! op2_o [31:0] $end
     $var wire  5 <! rd [4:0] $end
     $var wire  5 =! reg1_raddr_o [4:0] $end
     $var wire 32 0 reg1_rdata_i [31:0] $end
     $var wire  1 w! reg1_re_o $end
     $var wire  5 v! reg2_raddr_o [4:0] $end
     $var wire 32 1 reg2_rdata_i [31:0] $end
     $var wire  1 x! reg2_re_o $end
     $var wire  5 D! reg_waddr_o [4:0] $end
     $var wire  1 w! reg_we_o $end
     $var wire  5 F! rs1 [4:0] $end
     $var wire  5 G! rs2 [4:0] $end
    $upscope $end
    $scope module inst_type_r $end
     $var wire  3 H! funct3 [2:0] $end
     $var wire  7 I! funct7 [6:0] $end
     $var wire 32 X inst_i [31:0] $end
     $var wire  1 K! isType_m $end
     $var wire  1 J! isType_r $end
     $var wire 32 Q op1_o [31:0] $end
     $var wire 32 R op2_o [31:0] $end
     $var wire  7 ;! opcode [6:0] $end
     $var wire  5 <! rd [4:0] $end
     $var wire  5 >! reg1_raddr_o [4:0] $end
     $var wire 32 0 reg1_rdata_i [31:0] $end
     $var wire  1 @! reg1_re_o $end
     $var wire  5 ?! reg2_raddr_o [4:0] $end
     $var wire 32 1 reg2_rdata_i [31:0] $end
     $var wire  1 A! reg2_re_o $end
     $var wire  5 E! reg_waddr_o [4:0] $end
     $var wire  1 C! reg_we_o $end
     $var wire  5 F! rs1 [4:0] $end
     $var wire  5 G! rs2 [4:0] $end
     $var wire  5 G! shamt [4:0] $end
    $upscope $end
   $upscope $end
   $scope module id_exe0 $end
    $var wire  1 o! clk_i $end
    $var wire  1 % flush_jump_i $end
    $var wire 32 W inst_addr_i [31:0] $end
    $var wire 32 a inst_addr_o [31:0] $end
    $var wire 32 ' inst_i [31:0] $end
    $var wire  1 Z inst_is_load_o $end
    $var wire 32 ` inst_o [31:0] $end
    $var wire 32 ( op1_i [31:0] $end
    $var wire 32 \ op1_o [31:0] $end
    $var wire 32 ) op2_i [31:0] $end
    $var wire 32 ] op2_o [31:0] $end
    $var wire  5 [ rd_o [4:0] $end
    $var wire  5 + reg_waddr_i [4:0] $end
    $var wire  5 _ reg_waddr_o [4:0] $end
    $var wire  1 * reg_we_i $end
    $var wire  1 ^ reg_we_o $end
    $var wire  1 n! rst_i $end
    $var wire  6 $ stall_i [5:0] $end
   $upscope $end
   $scope module if_id0 $end
    $var wire  1 o! clk_i $end
    $var wire  1 % flush_jump_i $end
    $var wire 32 U inst_addr_i [31:0] $end
    $var wire 32 W inst_addr_o [31:0] $end
    $var wire 32 q! inst_i [31:0] $end
    $var wire 32 X inst_o [31:0] $end
    $var wire  1 n! rst_i $end
    $var wire  6 $ stall_i [5:0] $end
   $upscope $end
   $scope module mem0 $end
    $var wire  1 o! clk_i $end
    $var wire  1 T halt_o $end
    $var wire 32 e mem_addr_i [31:0] $end
    $var wire 32 f mem_data_i [31:0] $end
    $var wire  4 h mem_op_i [3:0] $end
    $var wire  1 g mem_we_i $end
    $var wire 32 = ram_addr_o [31:0] $end
    $var wire  2 L! ram_addr_offset [1:0] $end
    $var wire 32 @ ram_data_i [31:0] $end
    $var wire 32 ? ram_data_o [31:0] $end
    $var wire  1 > ram_w_request_o $end
    $var wire  5 b reg_waddr_i [4:0] $end
    $var wire  5 : reg_waddr_o [4:0] $end
    $var wire 32 d reg_wdata_i [31:0] $end
    $var wire 32 < reg_wdata_o [31:0] $end
    $var wire  1 c reg_we_i $end
    $var wire  1 ; reg_we_o $end
    $var wire  1 n! rst_i $end
   $upscope $end
   $scope module mem_wb0 $end
    $var wire  1 o! clk_i $end
    $var wire  5 : reg_waddr_i [4:0] $end
    $var wire  5 i reg_waddr_o [4:0] $end
    $var wire 32 < reg_wdata_i [31:0] $end
    $var wire 32 k reg_wdata_o [31:0] $end
    $var wire  1 ; reg_we_i $end
    $var wire  1 j reg_we_o $end
    $var wire  1 n! rst_i $end
    $var wire  6 $ stall_i [5:0] $end
   $upscope $end
   $scope module pc_reg0 $end
    $var wire  1 V ce_o $end
    $var wire  1 o! clk_i $end
    $var wire  1 % flush_jump_i $end
    $var wire 32 & new_pc_i [31:0] $end
    $var wire 32 U pc_o [31:0] $end
    $var wire  1 n! rst_i $end
    $var wire  6 $ stall_i [5:0] $end
   $upscope $end
   $scope module regfile0 $end
    $var wire  1 o! clk_i $end
    $var wire 32 # i [31:0] $end
    $var wire  5 , raddr1_i [4:0] $end
    $var wire  5 - raddr2_i [4:0] $end
    $var wire 32 0 rdata1_o [31:0] $end
    $var wire 32 1 rdata2_o [31:0] $end
    $var wire  1 . re1_i $end
    $var wire  1 / re2_i $end
    $var wire 32 M! regs[0] [31:0] $end
    $var wire 32 W! regs[10] [31:0] $end
    $var wire 32 X! regs[11] [31:0] $end
    $var wire 32 Y! regs[12] [31:0] $end
    $var wire 32 Z! regs[13] [31:0] $end
    $var wire 32 [! regs[14] [31:0] $end
    $var wire 32 \! regs[15] [31:0] $end
    $var wire 32 ]! regs[16] [31:0] $end
    $var wire 32 ^! regs[17] [31:0] $end
    $var wire 32 _! regs[18] [31:0] $end
    $var wire 32 `! regs[19] [31:0] $end
    $var wire 32 N! regs[1] [31:0] $end
    $var wire 32 a! regs[20] [31:0] $end
    $var wire 32 b! regs[21] [31:0] $end
    $var wire 32 c! regs[22] [31:0] $end
    $var wire 32 d! regs[23] [31:0] $end
    $var wire 32 e! regs[24] [31:0] $end
    $var wire 32 f! regs[25] [31:0] $end
    $var wire 32 g! regs[26] [31:0] $end
    $var wire 32 h! regs[27] [31:0] $end
    $var wire 32 i! regs[28] [31:0] $end
    $var wire 32 j! regs[29] [31:0] $end
    $var wire 32 O! regs[2] [31:0] $end
    $var wire 32 k! regs[30] [31:0] $end
    $var wire 32 l! regs[31] [31:0] $end
    $var wire 32 P! regs[3] [31:0] $end
    $var wire 32 Q! regs[4] [31:0] $end
    $var wire 32 R! regs[5] [31:0] $end
    $var wire 32 S! regs[6] [31:0] $end
    $var wire 32 T! regs[7] [31:0] $end
    $var wire 32 U! regs[8] [31:0] $end
    $var wire 32 V! regs[9] [31:0] $end
    $var wire  1 n! rst_i $end
    $var wire  5 i waddr_i [4:0] $end
    $var wire 32 k wdata_i [31:0] $end
    $var wire  1 j we_i $end
   $upscope $end
  $upscope $end
 $upscope $end
$enddefinitions $end


#5
b00000000000000000000000000100000 #
b000000 $
0%
b00000000000000000000000000000000 &
b00000000000000000000000000010011 '
b00000000000000000000000000000000 (
b00000000000000000000000000000000 )
0*
b00000 +
b00000 ,
b00000 -
0.
0/
b00000000000000000000000000000000 0
b00000000000000000000000000000000 1
b00000 2
03
b00000000000000000000000000000000 4
b00000000000000000000000000000000 5
b00000000000000000000000000000000 6
07
b0000 8
09
b00000 :
1;
b00000000000000000000000000000000 <
b00000000000000000000000000000000 =
0>
b00000000000000000000000000000000 ?
b00000000000000000000000000000000 @
b00000000000000000000000000000000 A
b00000000000000000000000000000000 B
0C
0D
0E
b0000000000000000000000000000000000000000000000000000000000000000 F
b00000000000000000000000000000000 H
1I
1J
b000 K
1L
1M
b011 N
b00000000000000000000000000000000 O
b00000000000000000000000000000000 P
b00000000000000000000000000000000 Q
b00000000000000000000000000000000 R
b000000000000000000000 S
0T
b00000000000000000000000000000000 U
0V
b00000000000000000000000000000000 W
b00000000000000000000000000000000 X
0Y
0Z
b00000 [
b00000000000000000000000000000000 \
b00000000000000000000000000000000 ]
0^
b00000 _
b00000000000000000000000000000000 `
b00000000000000000000000000000000 a
b00000 b
0c
b00000000000000000000000000000000 d
b00000000000000000000000000000000 e
b00000000000000000000000000000000 f
0g
b0000 h
b00000 i
0j
b00000000000000000000000000000000 k
b0000000 l
b000 m
b0000000 n
0o
0p
b00000000000000000000000000000000 q
b00000000000000000000000000000000 r
1s
b00000000000000000000000000000000 t
0u
0v
b0000000000000000000000000000000000000000000000000000000000000000 w
0y
0z
0{
1|
b00000000000000000000000000000000 }
b00000000000000000000000000000000000000000000000000000000000000000 ~
b000000 #!
b00000000000000000000000000000000 $!
b00000000000000000000000000000000 %!
b000 &!
1'!
b000000000000000000000000000000000 (!
b00000000000000000000000000000000000000000000000000000000000000000 *!
1-!
b00000000000000000000000000000000 .!
b00000000000000000000000000000000000000000000000000000000000000000 /!
b000000 2!
b000 3!
04!
b00000000000000000000000000000000 5!
b000000000000000000000000000000000 6!
b00000000000000000000000000000000000000000000000000000000000000000 8!
b0000000 ;!
b00000 <!
b00000 =!
b00000 >!
b00000 ?!
0@!
0A!
b00000000000000000000000000000000 B!
0C!
b00000 D!
b00000 E!
b00000 F!
b00000 G!
b000 H!
b0000000 I!
0J!
0K!
b00 L!
b00000000000000000000000000000000 M!
b00000000000000000000000000000000 N!
b00000000000000000000000000000000 O!
b00000000000000000000000000000000 P!
b00000000000000000000000000000000 Q!
b00000000000000000000000000000000 R!
b00000000000000000000000000000000 S!
b00000000000000000000000000000000 T!
b00000000000000000000000000000000 U!
b00000000000000000000000000000000 V!
b00000000000000000000000000000000 W!
b00000000000000000000000000000000 X!
b00000000000000000000000000000000 Y!
b00000000000000000000000000000000 Z!
b00000000000000000000000000000000 [!
b00000000000000000000000000000000 \!
b00000000000000000000000000000000 ]!
b00000000000000000000000000000000 ^!
b00000000000000000000000000000000 _!
b00000000000000000000000000000000 `!
b00000000000000000000000000000000 a!
b00000000000000000000000000000000 b!
b00000000000000000000000000000000 c!
b00000000000000000000000000000000 d!
b00000000000000000000000000000000 e!
b00000000000000000000000000000000 f!
b00000000000000000000000000000000 g!
b00000000000000000000000000000000 h!
b00000000000000000000000000000000 i!
b00000000000000000000000000000000 j!
b00000000000000000000000000000000 k!
b00000000000000000000000000000000 l!
b000000000000000000000 m!
1n!
0o!
0p!
b00000000000000000000000000000000 q!
b00000000000000000000000000100000 r!
b000 s!
b001 t!
b011 u!
b00000 v!
1w!
0x!
b00000000001000000000000000000000 y!
b00000000000000000000000000010101 z!
#10
b00000000000000000000000000010011 X
b00000000000000000000000000010011 `
1c
1j
b0010011 l
b0010011 ;!
1o!
#15
0o!
#20
1o!
#25
0o!
#30
1o!
#35
0o!
#40
1o!
#45
0o!
#50
1o!
#55
1*
1.
b00000101000000000000000001101111 @
0n!
0o!
#60
0*
0.
13
0;
1V
b00000000000000000000000000000000 X
1^
0c
b0000000 ;!
1o!
b00000101000000000000000001101111 q!
#65
0o!
#70
b00000101000000000000000001101111 '
1*
03
1;
b00000000000000000000000000000100 U
b00000101000000000000000001101111 X
0^
1c
0j
b1101111 ;!
b00000000000000000000000001010000 B!
b10000 G!
b0000010 I!
b000000000000000000100 m!
1o!
b00110100001000000010111101110011 q!
#75
0o!
#80
1%
b00000000000000000000000001010000 &
b00000000000000000000000000010011 '
0*
13
b00000000000000000000000000000100 4
0;
b00000000000000000000000000001000 U
b00000000000000000000000000000100 W
b00110100001000000010111101110011 X
1^
b00000101000000000000000001101111 `
0c
1j
b1101111 l
b0000010 n
b00000000000000000000000001010000 q
b00000000000000000000000001000000 r
b1110011 ;!
b11110 <!
b00000000000000000000001101000010 B!
b11110 D!
b00010 G!
b010 H!
b0011010 I!
b000000000000000001000 m!
1o!
b00000000100000000000111110010011 q!
#85
0o!
#90
0%
1*
1.
03
b00000000000000000000000000000000 4
1;
b00000000000000000000000000000100 <
b00000000000000000000000001010000 U
b00000000000000000000000000000000 W
b00000000000000000000000000010011 X
0^
b00000000000000000000000000010011 `
1c
b00000000000000000000000000000100 d
0j
b0010011 l
b0000000 n
b00000000000000000000000000000000 q
b00000000000000000000000000000000 r
b0010011 ;!
b00000 <!
b00000000000000000000000000000000 B!
b00000 D!
b00000 G!
b000 H!
b0000000 I!
b000000000000001010000 m!
1o!
b00000000000000000000000010010011 q!
#95
0o!
#100
b00000000000000000000000010010011 '
b00001 +
13
0;
b00000000000000000000000000000000 <
b00000000000000000000000001010100 U
b00000000000000000000000001010000 W
b00000000000000000000000010010011 X
1^
0c
b00000000000000000000000000000000 d
1j
b00000000000000000000000000000100 k
b00001 <!
b00001 D!
b000000000000001010100 m!
1o!
b00000000000000000000000100010011 q!
#105
0o!
#110
b00000000000000000000000100010011 '
b00010 +
b00001 2
1;
b00000000000000000000000001011000 U
b00000000000000000000000001010100 W
b00000000000000000000000100010011 X
b00001 [
b00001 _
b00000000000000000000000010010011 `
b00000000000000000000000001010000 a
1c
0j
b00000000000000000000000000000000 k
b00000000000000000000000000000001 r
b00010 <!
b00010 D!
b000000000000001011000 m!
1o!
b00000000000000000000000110010011 q!
#115
0o!
#120
b00000000000000000000000110010011 '
b00011 +
b00010 2
b00001 :
b00000000000000000000000001011100 U
b00000000000000000000000001011000 W
b00000000000000000000000110010011 X
b00010 [
b00010 _
b00000000000000000000000100010011 `
b00000000000000000000000001010100 a
b00001 b
1j
b00000000000000000000000000000010 r
b00011 <!
b00011 D!
b000000000000001011100 m!
1o!
b00000000000000000000001000010011 q!
#125
0o!
#130
b00000000000000000000001000010011 '
b00100 +
b00011 2
b00010 :
b00000000000000000000000001100000 U
b00000000000000000000000001011100 W
b00000000000000000000001000010011 X
b00011 [
b00011 _
b00000000000000000000000110010011 `
b00000000000000000000000001011000 a
b00010 b
b00001 i
b00000000000000000000000000000011 r
b00100 <!
b00100 D!
b000000000000001100000 m!
1o!
b00000000000000000000001010010011 q!
#135
0o!
#140
b00000000000000000000001010010011 '
b00101 +
b00100 2
b00011 :
b00000000000000000000000001100100 U
b00000000000000000000000001100000 W
b00000000000000000000001010010011 X
b00100 [
b00100 _
b00000000000000000000001000010011 `
b00000000000000000000000001011100 a
b00011 b
b00010 i
b00000000000000000000000000000100 r
b00101 <!
b00101 D!
b000000000000001100100 m!
1o!
b00000000000000000000001100010011 q!
#145
0o!
#150
b00000000000000000000001100010011 '
b00110 +
b00101 2
b00100 :
b00000000000000000000000001101000 U
b00000000000000000000000001100100 W
b00000000000000000000001100010011 X
b00101 [
b00101 _
b00000000000000000000001010010011 `
b00000000000000000000000001100000 a
b00100 b
b00011 i
b00000000000000000000000000000101 r
b00110 <!
b00110 D!
b000000000000001101000 m!
1o!
b00000000000000000000001110010011 q!
#155
0o!
#160
b00000000000000000000001110010011 '
b00111 +
b00110 2
b00101 :
b00000000000000000000000001101100 U
b00000000000000000000000001101000 W
b00000000000000000000001110010011 X
b00110 [
b00110 _
b00000000000000000000001100010011 `
b00000000000000000000000001100100 a
b00101 b
b00100 i
b00000000000000000000000000000110 r
b00111 <!
b00111 D!
b000000000000001101100 m!
1o!
b00000000000000000000010000010011 q!
#165
0o!
#170
b00000000000000000000010000010011 '
b01000 +
b00111 2
b00110 :
b00000000000000000000000001110000 U
b00000000000000000000000001101100 W
b00000000000000000000010000010011 X
b00111 [
b00111 _
b00000000000000000000001110010011 `
b00000000000000000000000001101000 a
b00110 b
b00101 i
b00000000000000000000000000000111 r
b01000 <!
b01000 D!
b000000000000001110000 m!
1o!
b00000000000000000000010010010011 q!
#175
0o!
#180
b00000000000000000000010010010011 '
b01001 +
b01000 2
b00111 :
b00000000000000000000000001110100 U
b00000000000000000000000001110000 W
b00000000000000000000010010010011 X
b01000 [
b01000 _
b00000000000000000000010000010011 `
b00000000000000000000000001101100 a
b00111 b
b00110 i
b00000000000000000000000000001000 r
b01001 <!
b01001 D!
b000000000000001110100 m!
1o!
b00000000000000000000010100010011 q!
#185
0o!
#190
b00000000000000000000010100010011 '
b01010 +
b01001 2
b01000 :
b00000000000000000000000001111000 U
b00000000000000000000000001110100 W
b00000000000000000000010100010011 X
b01001 [
b01001 _
b00000000000000000000010010010011 `
b00000000000000000000000001110000 a
b01000 b
b00111 i
b00000000000000000000000000001001 r
b01010 <!
b01010 D!
b000000000000001111000 m!
1o!
b00000000000000000000010110010011 q!
#195
0o!
#200
b00000000000000000000010110010011 '
b01011 +
b01010 2
b01001 :
b00000000000000000000000001111100 U
b00000000000000000000000001111000 W
b00000000000000000000010110010011 X
b01010 [
b01010 _
b00000000000000000000010100010011 `
b00000000000000000000000001110100 a
b01001 b
b01000 i
b00000000000000000000000000001010 r
b01011 <!
b01011 D!
b000000000000001111100 m!
1o!
b00000000000000000000011000010011 q!
#205
0o!
#210
b00000000000000000000011000010011 '
b01100 +
b01011 2
b01010 :
b00000000000000000000000010000000 U
b00000000000000000000000001111100 W
b00000000000000000000011000010011 X
b01011 [
b01011 _
b00000000000000000000010110010011 `
b00000000000000000000000001111000 a
b01010 b
b01001 i
b00000000000000000000000000001011 r
b01100 <!
b01100 D!
b000000000000010000000 m!
1o!
b00000000000000000000011010010011 q!
#215
0o!
#220
b00000000000000000000011010010011 '
b01101 +
b01100 2
b01011 :
b00000000000000000000000010000100 U
b00000000000000000000000010000000 W
b00000000000000000000011010010011 X
b01100 [
b01100 _
b00000000000000000000011000010011 `
b00000000000000000000000001111100 a
b01011 b
b01010 i
b00000000000000000000000000001100 r
b01101 <!
b01101 D!
b000000000000010000100 m!
1o!
b00000000000000000000011100010011 q!
#225
0o!
#230
b00000000000000000000011100010011 '
b01110 +
b01101 2
b01100 :
b00000000000000000000000010001000 U
b00000000000000000000000010000100 W
b00000000000000000000011100010011 X
b01101 [
b01101 _
b00000000000000000000011010010011 `
b00000000000000000000000010000000 a
b01100 b
b01011 i
b00000000000000000000000000001101 r
b01110 <!
b01110 D!
b000000000000010001000 m!
1o!
b00000000000000000000011110010011 q!
#235
0o!
#240
b00000000000000000000011110010011 '
b01111 +
b01110 2
b01101 :
b00000000000000000000000010001100 U
b00000000000000000000000010001000 W
b00000000000000000000011110010011 X
b01110 [
b01110 _
b00000000000000000000011100010011 `
b00000000000000000000000010000100 a
b01101 b
b01100 i
b00000000000000000000000000001110 r
b01111 <!
b01111 D!
b000000000000010001100 m!
1o!
b00000000000000000000100000010011 q!
#245
0o!
#250
b00000000000000000000100000010011 '
b10000 +
b01111 2
b01110 :
b00000000000000000000000010010000 U
b00000000000000000000000010001100 W
b00000000000000000000100000010011 X
b01111 [
b01111 _
b00000000000000000000011110010011 `
b00000000000000000000000010001000 a
b01110 b
b01101 i
b00000000000000000000000000001111 r
b10000 <!
b10000 D!
b000000000000010010000 m!
1o!
b00000000000000000000100010010011 q!
#255
0o!
