Junior/111-2/Soc/riscv_core/wave.vcd
$version Generated by VerilatedVcd $end
$timescale 1s $end

 $scope module top $end
  $var wire  1 7! clk_i $end
  $var wire  1 8! halt_o $end
  $var wire  1 6! rst_i $end
  $scope module test_top $end
   $var wire  1 H ce_wire $end
   $var wire  1 7! clk_i $end
   $var wire  1 % ctrl_flush_jump_o $end
   $var wire 32 & ctrl_new_pc_o [31:0] $end
   $var wire  6 $ ctrl_stall_o [5:0] $end
   $var wire 32 & exe_jump_addr_o [31:0] $end
   $var wire  1 % exe_jump_enable_o $end
   $var wire 32 5 exe_mem_addr_o [31:0] $end
   $var wire 32 6 exe_mem_data_o [31:0] $end
   $var wire 32 W exe_mem_mem_addr_o [31:0] $end
   $var wire 32 X exe_mem_mem_data_o [31:0] $end
   $var wire  4 Z exe_mem_mem_op_o [3:0] $end
   $var wire  1 Y exe_mem_mem_we_o $end
   $var wire  4 8 exe_mem_op_o [3:0] $end
   $var wire  5 T exe_mem_reg_waddr_o [4:0] $end
   $var wire 32 V exe_mem_reg_wdata_o [31:0] $end
   $var wire  1 U exe_mem_reg_we_o $end
   $var wire  1 7 exe_mem_we_o $end
   $var wire  5 2 exe_reg_waddr_o [4:0] $end
   $var wire 32 4 exe_reg_wdata_o [31:0] $end
   $var wire  1 3 exe_reg_we_o $end
   $var wire  1 9 exe_stallreq_o $end
   $var wire  1 F halt_o $end
   $var wire 32 S id_exe_inst_addr_o [31:0] $end
   $var wire  1 L id_exe_inst_is_load_o $end
   $var wire 32 R id_exe_inst_o [31:0] $end
   $var wire 32 N id_exe_op1_o [31:0] $end
   $var wire 32 O id_exe_op2_o [31:0] $end
   $var wire  5 M id_exe_rd_o [4:0] $end
   $var wire  5 Q id_exe_reg_waddr_o [4:0] $end
   $var wire  1 P id_exe_reg_we_o $end
   $var wire 32 I id_inst_addr_o [31:0] $end
   $var wire 32 ' id_inst_o [31:0] $end
   $var wire 32 ( id_op1_o [31:0] $end
   $var wire 32 ) id_op2_o [31:0] $end
   $var wire  5 , id_reg1_addr_o [4:0] $end
   $var wire  1 . id_reg1_re_o $end
   $var wire  5 - id_reg2_addr_o [4:0] $end
   $var wire  1 / id_reg2_re_o $end
   $var wire  5 + id_reg_waddr_o [4:0] $end
   $var wire  1 * id_reg_we_o $end
   $var wire  1 K id_stallreq_o $end
   $var wire 32 I if_id_inst_addr_o [31:0] $end
   $var wire 32 J if_id_inst_o [31:0] $end
   $var wire 32 G if_inst_addr_o [31:0] $end
   $var wire 32 9! if_inst_o [31:0] $end
   $var wire  1 F mem_halt_o $end
   $var wire 32 = mem_ram_addr_o [31:0] $end
   $var wire 32 ? mem_ram_data_o [31:0] $end
   $var wire  1 > mem_ram_w_request_o $end
   $var wire  5 : mem_reg_waddr_o [4:0] $end
   $var wire 32 < mem_reg_wdata_o [31:0] $end
   $var wire  1 ; mem_reg_we_o $end
   $var wire  5 [ mem_wb_reg_waddr_o [4:0] $end
   $var wire 32 ] mem_wb_reg_wdata_o [31:0] $end
   $var wire  1 \ mem_wb_reg_we_o $end
   $var wire 32 G pc_wire [31:0] $end
   $var wire 32 @ ram_data_o [31:0] $end
   $var wire 32 0 reg1_data_o [31:0] $end
   $var wire 32 1 reg2_data_o [31:0] $end
   $var wire  1 6! rst_i $end
   $scope module ctrl0 $end
    $var wire  1 % flush_jump_o $end
    $var wire 32 & jump_addr_i [31:0] $end
    $var wire  1 % jump_enable_i $end
    $var wire 32 & new_pc_o [31:0] $end
    $var wire  1 6! rst_i $end
    $var wire  6 $ stall_o [5:0] $end
    $var wire  1 9 stallreq_from_exe_i $end
    $var wire  1 K stallreq_from_id_i $end
   $upscope $end
   $scope module data_ram0 $end
    $var wire 32 >! RAM_ADDR_WIDTH [31:0] $end
    $var wire 32 =! RAM_SIZE [31:0] $end
    $var wire 21 E addr4 [20:0] $end
    $var wire 32 = addr_i [31:0] $end
    $var wire  1 7! clk_i $end
    $var wire 32 ? data_i [31:0] $end
    $var wire 32 @ data_o [31:0] $end
    $var wire  1 H inst_ce_i $end
    $var wire 32 9! inst_o [31:0] $end
    $var wire 32 G pc_i [31:0] $end
    $var wire 21 5! rom_addr4 [20:0] $end
    $var wire  1 6! rst_i $end
    $var wire  1 > we_i $end
   $upscope $end
   $scope module exe0 $end
    $var wire  3 _ funct3 [2:0] $end
    $var wire  7 ` funct7 [6:0] $end
    $var wire 32 S inst_addr_i [31:0] $end
    $var wire 32 R inst_i [31:0] $end
    $var wire  1 a isType_r $end
    $var wire 32 & jump_addr_o [31:0] $end
    $var wire  1 % jump_enable_o $end
    $var wire 32 b load_addr_offset [31:0] $end
    $var wire 32 5 mem_addr_o [31:0] $end
    $var wire 32 6 mem_data_o [31:0] $end
    $var wire  4 8 mem_op_o [3:0] $end
    $var wire  1 7 mem_we_o $end
    $var wire  1 d op1_eq_op2 $end
    $var wire 32 N op1_i [31:0] $end
    $var wire 32 O op2_i [31:0] $end
    $var wire  7 ^ opcode [6:0] $end
    $var wire 32 S pc [31:0] $end
    $var wire  5 Q reg_waddr_i [4:0] $end
    $var wire  5 2 reg_waddr_o [4:0] $end
    $var wire 32 4 reg_wdata_o [31:0] $end
    $var wire  1 P reg_we_i $end
    $var wire  1 3 reg_we_o $end
    $var wire  1 6! rst_i $end
    $var wire  1 9 stallreq_o $end
    $var wire 32 c store_addr_offset [31:0] $end
   $upscope $end
   $scope module exe_mem0 $end
    $var wire  1 7! clk_i $end
    $var wire 32 5 mem_addr_i [31:0] $end
    $var wire 32 W mem_addr_o [31:0] $end
    $var wire 32 6 mem_data_i [31:0] $end
    $var wire 32 X mem_data_o [31:0] $end
    $var wire  4 8 mem_op_i [3:0] $end
    $var wire  4 Z mem_op_o [3:0] $end
    $var wire  1 7 mem_we_i $end
    $var wire  1 Y mem_we_o $end
    $var wire  5 2 reg_waddr_i [4:0] $end
    $var wire  5 T reg_waddr_o [4:0] $end
    $var wire 32 4 reg_wdata_i [31:0] $end
    $var wire 32 V reg_wdata_o [31:0] $end
    $var wire  1 3 reg_we_i $end
    $var wire  1 U reg_we_o $end
    $var wire  1 6! rst_i $end
    $var wire  6 $ stall_i [5:0] $end
   $upscope $end
   $scope module id0 $end
    $var wire  5 M exe_rd_i [4:0] $end
    $var wire  5 2 exe_reg_waddr_i [4:0] $end
    $var wire 32 4 exe_reg_wdata_i [31:0] $end
    $var wire  1 3 exe_reg_we_i $end
    $var wire 32 0 i_op1_o [31:0] $end
    $var wire 32 k i_op2_o [31:0] $end
    $var wire  5 g i_reg1_raddr_o [4:0] $end
    $var wire  1 ;! i_reg1_re_o $end
    $var wire  5 :! i_reg2_raddr_o [4:0] $end
    $var wire  1 <! i_reg2_re_o $end
    $var wire  5 l i_reg_waddr_o [4:0] $end
    $var wire  1 ;! i_reg_we_o $end
    $var wire 32 I inst_addr_i [31:0] $end
    $var wire 32 I inst_addr_o [31:0] $end
    $var wire 32 J inst_i [31:0] $end
    $var wire 32 ' inst_o [31:0] $end
    $var wire  1 K is_load_hazard $end
    $var wire  5 : mem_reg_waddr_i [4:0] $end
    $var wire 32 < mem_reg_wdata_i [31:0] $end
    $var wire  1 ; mem_reg_we_i $end
    $var wire 32 ( op1_o [31:0] $end
    $var wire 32 A op1_o_final [31:0] $end
    $var wire 32 ) op2_o [31:0] $end
    $var wire 32 B op2_o_final [31:0] $end
    $var wire  7 e opcode [6:0] $end
    $var wire  1 L pre_inst_is_load_i $end
    $var wire 32 C r_op1_o [31:0] $end
    $var wire 32 D r_op2_o [31:0] $end
    $var wire  5 h r_reg1_raddr_o [4:0] $end
    $var wire  1 j r_reg1_re_o $end
    $var wire  5 i r_reg2_raddr_o [4:0] $end
    $var wire  1 j r_reg2_re_o $end
    $var wire  5 m r_reg_waddr_o [4:0] $end
    $var wire  1 j r_reg_we_o $end
    $var wire  5 f rd [4:0] $end
    $var wire  5 , reg1_raddr_o [4:0] $end
    $var wire 32 0 reg1_rdata_i [31:0] $end
    $var wire  1 . reg1_re_o $end
    $var wire  5 - reg2_raddr_o [4:0] $end
    $var wire 32 1 reg2_rdata_i [31:0] $end
    $var wire  1 / reg2_re_o $end
    $var wire  5 + reg_waddr_o [4:0] $end
    $var wire  1 * reg_we_o $end
    $var wire  5 n rs1 [4:0] $end
    $var wire  5 o rs2 [4:0] $end
    $var wire  1 6! rst_i $end
    $var wire  1 K stallreq_o $end
    $scope module inst_type_i $end
     $var wire  3 p funct3 [2:0] $end
     $var wire 32 J inst_i [31:0] $end
     $var wire 32 0 op1_o [31:0] $end
     $var wire 32 k op2_o [31:0] $end
     $var wire  5 f rd [4:0] $end
     $var wire  5 g reg1_raddr_o [4:0] $end
     $var wire 32 0 reg1_rdata_i [31:0] $end
     $var wire  1 ;! reg1_re_o $end
     $var wire  5 :! reg2_raddr_o [4:0] $end
     $var wire 32 1 reg2_rdata_i [31:0] $end
     $var wire  1 <! reg2_re_o $end
     $var wire  5 l reg_waddr_o [4:0] $end
     $var wire  1 ;! reg_we_o $end
     $var wire  5 n rs1 [4:0] $end
     $var wire  5 o rs2 [4:0] $end
    $upscope $end
    $scope module inst_type_r $end
     $var wire  3 p funct3 [2:0] $end
     $var wire  7 q funct7 [6:0] $end
     $var wire 32 J inst_i [31:0] $end
     $var wire  1 j isType_r $end
     $var wire 32 C op1_o [31:0] $end
     $var wire 32 D op2_o [31:0] $end
     $var wire  7 e opcode [6:0] $end
     $var wire  5 f rd [4:0] $end
     $var wire  5 h reg1_raddr_o [4:0] $end
     $var wire 32 0 reg1_rdata_i [31:0] $end
     $var wire  1 j reg1_re_o $end
     $var wire  5 i reg2_raddr_o [4:0] $end
     $var wire 32 1 reg2_rdata_i [31:0] $end
     $var wire  1 j reg2_re_o $end
     $var wire  5 m reg_waddr_o [4:0] $end
     $var wire  1 j reg_we_o $end
     $var wire  5 n rs1 [4:0] $end
     $var wire  5 o rs2 [4:0] $end
     $var wire  5 o shamt [4:0] $end
    $upscope $end
   $upscope $end
   $scope module id_exe0 $end
    $var wire  1 7! clk_i $end
    $var wire  1 % flush_jump_i $end
    $var wire 32 I inst_addr_i [31:0] $end
    $var wire 32 S inst_addr_o [31:0] $end
    $var wire 32 ' inst_i [31:0] $end
    $var wire  1 L inst_is_load_o $end
    $var wire 32 R inst_o [31:0] $end
    $var wire 32 ( op1_i [31:0] $end
    $var wire 32 N op1_o [31:0] $end
    $var wire 32 ) op2_i [31:0] $end
    $var wire 32 O op2_o [31:0] $end
    $var wire  5 M rd_o [4:0] $end
    $var wire  5 + reg_waddr_i [4:0] $end
    $var wire  5 Q reg_waddr_o [4:0] $end
    $var wire  1 * reg_we_i $end
    $var wire  1 P reg_we_o $end
    $var wire  1 6! rst_i $end
    $var wire  6 $ stall_i [5:0] $end
   $upscope $end
   $scope module if_id0 $end
    $var wire  1 7! clk_i $end
    $var wire  1 % flush_jump_i $end
    $var wire 32 G inst_addr_i [31:0] $end
    $var wire 32 I inst_addr_o [31:0] $end
    $var wire 32 9! inst_i [31:0] $end
    $var wire 32 J inst_o [31:0] $end
    $var wire  1 6! rst_i $end
    $var wire  6 $ stall_i [5:0] $end
   $upscope $end
   $scope module mem0 $end
    $var wire  1 7! clk_i $end
    $var wire  1 F halt_o $end
    $var wire 32 W mem_addr_i [31:0] $end
    $var wire 32 X mem_data_i [31:0] $end
    $var wire  4 Z mem_op_i [3:0] $end
    $var wire  1 Y mem_we_i $end
    $var wire 32 = ram_addr_o [31:0] $end
    $var wire  2 r ram_addr_offset [1:0] $end
    $var wire 32 @ ram_data_i [31:0] $end
    $var wire 32 ? ram_data_o [31:0] $end
    $var wire  1 > ram_w_request_o $end
    $var wire  5 T reg_waddr_i [4:0] $end
    $var wire  5 : reg_waddr_o [4:0] $end
    $var wire 32 V reg_wdata_i [31:0] $end
    $var wire 32 < reg_wdata_o [31:0] $end
    $var wire  1 U reg_we_i $end
    $var wire  1 ; reg_we_o $end
    $var wire  1 6! rst_i $end
   $upscope $end
   $scope module mem_wb0 $end
    $var wire  1 7! clk_i $end
    $var wire  5 : reg_waddr_i [4:0] $end
    $var wire  5 [ reg_waddr_o [4:0] $end
    $var wire 32 < reg_wdata_i [31:0] $end
    $var wire 32 ] reg_wdata_o [31:0] $end
    $var wire  1 ; reg_we_i $end
    $var wire  1 \ reg_we_o $end
    $var wire  1 6! rst_i $end
    $var wire  6 $ stall_i [5:0] $end
   $upscope $end
   $scope module pc_reg0 $end
    $var wire  1 H ce_o $end
    $var wire  1 7! clk_i $end
    $var wire  1 % flush_jump_i $end
    $var wire 32 & new_pc_i [31:0] $end
    $var wire 32 G pc_o [31:0] $end
    $var wire  1 6! rst_i $end
    $var wire  6 $ stall_i [5:0] $end
   $upscope $end
   $scope module regfile0 $end
    $var wire  1 7! clk_i $end
    $var wire 32 # i [31:0] $end
    $var wire  5 , raddr1_i [4:0] $end
    $var wire  5 - raddr2_i [4:0] $end
    $var wire 32 0 rdata1_o [31:0] $end
    $var wire 32 1 rdata2_o [31:0] $end
    $var wire  1 . re1_i $end
    $var wire  1 / re2_i $end
    $var wire 32 s regs[0] [31:0] $end
    $var wire 32 } regs[10] [31:0] $end
    $var wire 32 ~ regs[11] [31:0] $end
    $var wire 32 !! regs[12] [31:0] $end
    $var wire 32 "! regs[13] [31:0] $end
    $var wire 32 #! regs[14] [31:0] $end
    $var wire 32 $! regs[15] [31:0] $end
    $var wire 32 %! regs[16] [31:0] $end
    $var wire 32 &! regs[17] [31:0] $end
    $var wire 32 '! regs[18] [31:0] $end
    $var wire 32 (! regs[19] [31:0] $end
    $var wire 32 t regs[1] [31:0] $end
    $var wire 32 )! regs[20] [31:0] $end
    $var wire 32 *! regs[21] [31:0] $end
    $var wire 32 +! regs[22] [31:0] $end
    $var wire 32 ,! regs[23] [31:0] $end
    $var wire 32 -! regs[24] [31:0] $end
    $var wire 32 .! regs[25] [31:0] $end
    $var wire 32 /! regs[26] [31:0] $end
    $var wire 32 0! regs[27] [31:0] $end
    $var wire 32 1! regs[28] [31:0] $end
    $var wire 32 2! regs[29] [31:0] $end
    $var wire 32 u regs[2] [31:0] $end
    $var wire 32 3! regs[30] [31:0] $end
    $var wire 32 4! regs[31] [31:0] $end
    $var wire 32 v regs[3] [31:0] $end
    $var wire 32 w regs[4] [31:0] $end
    $var wire 32 x regs[5] [31:0] $end
    $var wire 32 y regs[6] [31:0] $end
    $var wire 32 z regs[7] [31:0] $end
    $var wire 32 { regs[8] [31:0] $end
    $var wire 32 | regs[9] [31:0] $end
    $var wire  1 6! rst_i $end
    $var wire  5 [ waddr_i [4:0] $end
    $var wire 32 ] wdata_i [31:0] $end
    $var wire  1 \ we_i $end
   $upscope $end
  $upscope $end
 $upscope $end
$enddefinitions $end


#5
b00000000000000000000000000100000 #
b000000 $
0%
b00000000000000000000000000000000 &
b00000000000000000000000000010011 '
b00000000000000000000000000000000 (
b00000000000000000000000000000000 )
0*
b00000 +
b00000 ,
b00000 -
0.
0/
b00000000000000000000000000000000 0
b00000000000000000000000000000000 1
b00000 2
03
b00000000000000000000000000000000 4
b00000000000000000000000000000000 5
b00000000000000000000000000000000 6
07
b0000 8
09
b00000 :
1;
b00000000000000000000000000000000 <
b00000000000000000000000000000000 =
0>
b00000000000000000000000000000000 ?
b00000000000000000000000000000000 @
b00000000000000000000000000000000 A
b00000000000000000000000000000000 B
b00000000000000000000000000000000 C
b00000000000000000000000000000000 D
b000000000000000000000 E
0F
b00000000000000000000000000000000 G
0H
b00000000000000000000000000000000 I
b00000000000000000000000000000000 J
0K
0L
b00000 M
b00000000000000000000000000000000 N
b00000000000000000000000000000000 O
0P
b00000 Q
b00000000000000000000000000000000 R
b00000000000000000000000000000000 S
b00000 T
0U
b00000000000000000000000000000000 V
b00000000000000000000000000000000 W
b00000000000000000000000000000000 X
0Y
b0000 Z
b00000 [
0\
b00000000000000000000000000000000 ]
b0000000 ^
b000 _
b0000000 `
0a
b00000000000000000000000000000000 b
b00000000000000000000000000000000 c
1d
b0000000 e
b00000 f
b00000 g
b00000 h
b00000 i
0j
b00000000000000000000000000000000 k
b00000 l
b00000 m
b00000 n
b00000 o
b000 p
b0000000 q
b00 r
b00000000000000000000000000000000 s
b00000000000000000000000000000000 t
b00000000000000000000000000000000 u
b00000000000000000000000000000000 v
b00000000000000000000000000000000 w
b00000000000000000000000000000000 x
b00000000000000000000000000000000 y
b00000000000000000000000000000000 z
b00000000000000000000000000000000 {
b00000000000000000000000000000000 |
b00000000000000000000000000000000 }
b00000000000000000000000000000000 ~
b00000000000000000000000000000000 !!
b00000000000000000000000000000000 "!
b00000000000000000000000000000000 #!
b00000000000000000000000000000000 $!
b00000000000000000000000000000000 %!
b00000000000000000000000000000000 &!
b00000000000000000000000000000000 '!
b00000000000000000000000000000000 (!
b00000000000000000000000000000000 )!
b00000000000000000000000000000000 *!
b00000000000000000000000000000000 +!
b00000000000000000000000000000000 ,!
b00000000000000000000000000000000 -!
b00000000000000000000000000000000 .!
b00000000000000000000000000000000 /!
b00000000000000000000000000000000 0!
b00000000000000000000000000000000 1!
b00000000000000000000000000000000 2!
b00000000000000000000000000000000 3!
b00000000000000000000000000000000 4!
b000000000000000000000 5!
16!
07!
08!
b00000000000000000000000000000000 9!
b00000 :!
1;!
0<!
b00000000001000000000000000000000 =!
b00000000000000000000000000010101 >!
#10
b00000000000000000000000000010011 J
b00000000000000000000000000010011 R
1U
1\
b0010011 ^
b0010011 e
17!
#15
07!
#20
17!
#25
07!
#30
17!
#35
07!
#40
17!
#45
07!
#50
17!
#55
1*
1.
b00000101000000000000000001101111 @
06!
07!
#60
0*
0.
13
0;
1H
b00000000000000000000000000000000 J
1P
0U
b0000000 e
17!
b00000101000000000000000001101111 9!
#65
07!
#70
b00000101000000000000000001101111 '
1*
03
1;
b00000000000000000000000000000100 G
b00000101000000000000000001101111 J
0P
1U
0\
b1101111 e
b00000000000000000000000001010000 k
b10000 o
b0000010 q
b000000000000000000100 5!
17!
b00110100001000000010111101110011 9!
#75
07!
#80
1%
b00000000000000000000000001010000 &
b00000000000000000000000000010011 '
0*
13
b00000000000000000000000000000100 4
0;
b00000000000000000000000000001000 G
b00000000000000000000000000000100 I
b00110100001000000010111101110011 J
1P
b00000101000000000000000001101111 R
0U
1\
b1101111 ^
b0000010 `
b00000000000000000000000001010000 b
b00000000000000000000000001000000 c
b1110011 e
b11110 f
b00000000000000000000001101000010 k
b11110 l
b00010 o
b010 p
b0011010 q
b000000000000000001000 5!
17!
b00000000100000000000111110010011 9!
#85
07!
#90
0%
1*
1.
03
b00000000000000000000000000000000 4
1;
b00000000000000000000000000000100 <
b00000000000000000000000001010000 G
b00000000000000000000000000000000 I
b00000000000000000000000000010011 J
0P
b00000000000000000000000000010011 R
1U
b00000000000000000000000000000100 V
0\
b0010011 ^
b0000000 `
b00000000000000000000000000000000 b
b00000000000000000000000000000000 c
b0010011 e
b00000 f
b00000000000000000000000000000000 k
b00000 l
b00000 o
b000 p
b0000000 q
b000000000000001010000 5!
17!
b00000000000000000000000010010011 9!
#95
07!
#100
b00000000000000000000000010010011 '
b00001 +
13
0;
b00000000000000000000000000000000 <
b00000000000000000000000001010100 G
b00000000000000000000000001010000 I
b00000000000000000000000010010011 J
1P
0U
b00000000000000000000000000000000 V
1\
b00000000000000000000000000000100 ]
b00001 f
b00001 l
b000000000000001010100 5!
17!
b00000000000000000000000100010011 9!
#105
07!
#110
b00000000000000000000000100010011 '
b00010 +
b00001 2
1;
b00000000000000000000000001011000 G
b00000000000000000000000001010100 I
b00000000000000000000000100010011 J
b00001 M
b00001 Q
b00000000000000000000000010010011 R
b00000000000000000000000001010000 S
1U
0\
b00000000000000000000000000000000 ]
b00000000000000000000000000000001 c
b00010 f
b00010 l
b000000000000001011000 5!
17!
b00000000000000000000000110010011 9!
#115
07!
#120
b00000000000000000000000110010011 '
b00011 +
b00010 2
b00001 :
b00000000000000000000000001011100 G
b00000000000000000000000001011000 I
b00000000000000000000000110010011 J
b00010 M
b00010 Q
b00000000000000000000000100010011 R
b00000000000000000000000001010100 S
b00001 T
1\
b00000000000000000000000000000010 c
b00011 f
b00011 l
b000000000000001011100 5!
17!
b00000000000000000000001000010011 9!
#125
07!
#130
b00000000000000000000001000010011 '
b00100 +
b00011 2
b00010 :
b00000000000000000000000001100000 G
b00000000000000000000000001011100 I
b00000000000000000000001000010011 J
b00011 M
b00011 Q
b00000000000000000000000110010011 R
b00000000000000000000000001011000 S
b00010 T
b00001 [
b00000000000000000000000000000011 c
b00100 f
b00100 l
b000000000000001100000 5!
17!
b00000000000000000000001010010011 9!
#135
07!
#140
b00000000000000000000001010010011 '
b00101 +
b00100 2
b00011 :
b00000000000000000000000001100100 G
b00000000000000000000000001100000 I
b00000000000000000000001010010011 J
b00100 M
b00100 Q
b00000000000000000000001000010011 R
b00000000000000000000000001011100 S
b00011 T
b00010 [
b00000000000000000000000000000100 c
b00101 f
b00101 l
b000000000000001100100 5!
17!
b00000000000000000000001100010011 9!
#145
07!
#150
b00000000000000000000001100010011 '
b00110 +
b00101 2
b00100 :
b00000000000000000000000001101000 G
b00000000000000000000000001100100 I
b00000000000000000000001100010011 J
b00101 M
b00101 Q
b00000000000000000000001010010011 R
b00000000000000000000000001100000 S
b00100 T
b00011 [
b00000000000000000000000000000101 c
b00110 f
b00110 l
b000000000000001101000 5!
17!
b00000000000000000000001110010011 9!
#155
07!
#160
b00000000000000000000001110010011 '
b00111 +
b00110 2
b00101 :
b00000000000000000000000001101100 G
b00000000000000000000000001101000 I
b00000000000000000000001110010011 J
b00110 M
b00110 Q
b00000000000000000000001100010011 R
b00000000000000000000000001100100 S
b00101 T
b00100 [
b00000000000000000000000000000110 c
b00111 f
b00111 l
b000000000000001101100 5!
17!
b00000000000000000000010000010011 9!
#165
07!
#170
b00000000000000000000010000010011 '
b01000 +
b00111 2
b00110 :
b00000000000000000000000001110000 G
b00000000000000000000000001101100 I
b00000000000000000000010000010011 J
b00111 M
b00111 Q
b00000000000000000000001110010011 R
b00000000000000000000000001101000 S
b00110 T
b00101 [
b00000000000000000000000000000111 c
b01000 f
b01000 l
b000000000000001110000 5!
17!
b00000000000000000000010010010011 9!
#175
07!
#180
b00000000000000000000010010010011 '
b01001 +
b01000 2
b00111 :
b00000000000000000000000001110100 G
b00000000000000000000000001110000 I
b00000000000000000000010010010011 J
b01000 M
b01000 Q
b00000000000000000000010000010011 R
b00000000000000000000000001101100 S
b00111 T
b00110 [
b00000000000000000000000000001000 c
b01001 f
b01001 l
b000000000000001110100 5!
17!
b00000000000000000000010100010011 9!
#185
07!
#190
b00000000000000000000010100010011 '
b01010 +
b01001 2
b01000 :
b00000000000000000000000001111000 G
b00000000000000000000000001110100 I
b00000000000000000000010100010011 J
b01001 M
b01001 Q
b00000000000000000000010010010011 R
b00000000000000000000000001110000 S
b01000 T
b00111 [
b00000000000000000000000000001001 c
b01010 f
b01010 l
b000000000000001111000 5!
17!
b00000000000000000000010110010011 9!
#195
07!
#200
b00000000000000000000010110010011 '
b01011 +
b01010 2
b01001 :
b00000000000000000000000001111100 G
b00000000000000000000000001111000 I
b00000000000000000000010110010011 J
b01010 M
b01010 Q
b00000000000000000000010100010011 R
b00000000000000000000000001110100 S
b01001 T
b01000 [
b00000000000000000000000000001010 c
b01011 f
b01011 l
b000000000000001111100 5!
17!
b00000000000000000000011000010011 9!
#205
07!
#210
b00000000000000000000011000010011 '
b01100 +
b01011 2
b01010 :
b00000000000000000000000010000000 G
b00000000000000000000000001111100 I
b00000000000000000000011000010011 J
b01011 M
b01011 Q
b00000000000000000000010110010011 R
b00000000000000000000000001111000 S
b01010 T
b01001 [
b00000000000000000000000000001011 c
b01100 f
b01100 l
b000000000000010000000 5!
17!
b00000000000000000000011010010011 9!
#215
07!
#220
b00000000000000000000011010010011 '
b01101 +
b01100 2
b01011 :
b00000000000000000000000010000100 G
b00000000000000000000000010000000 I
b00000000000000000000011010010011 J
b01100 M
b01100 Q
b00000000000000000000011000010011 R
b00000000000000000000000001111100 S
b01011 T
b01010 [
b00000000000000000000000000001100 c
b01101 f
b01101 l
b000000000000010000100 5!
17!
b00000000000000000000011100010011 9!
#225
07!
#230
b00000000000000000000011100010011 '
b01110 +
b01101 2
b01100 :
b00000000000000000000000010001000 G
b00000000000000000000000010000100 I
b00000000000000000000011100010011 J
b01101 M
b01101 Q
b00000000000000000000011010010011 R
b00000000000000000000000010000000 S
b01100 T
b01011 [
b00000000000000000000000000001101 c
b01110 f
b01110 l
b000000000000010001000 5!
17!
b00000000000000000000011110010011 9!
#235
07!
#240
b00000000000000000000011110010011 '
b01111 +
b01110 2
b01101 :
b00000000000000000000000010001100 G
b00000000000000000000000010001000 I
b00000000000000000000011110010011 J
b01110 M
b01110 Q
b00000000000000000000011100010011 R
b00000000000000000000000010000100 S
b01101 T
b01100 [
b00000000000000000000000000001110 c
b01111 f
b01111 l
b000000000000010001100 5!
17!
b00000000000000000000100000010011 9!
#245
07!
#250
b00000000000000000000100000010011 '
b10000 +
b01111 2
b01110 :
b00000000000000000000000010010000 G
b00000000000000000000000010001100 I
b00000000000000000000100000010011 J
b01111 M
b01111 Q
b00000000000000000000011110010011 R
b00000000000000000000000010001000 S
b01110 T
b01101 [
b00000000000000000000000000001111 c
b10000 f
b10000 l
b000000000000010010000 5!
17!
b00000000000000000000100010010011 9!
#255
07!
#260
b00000000000000000000100010010011 '
b10001 +
b10000 2
b01111 :
b00000000000000000000000010010100 G
b00000000000000000000000010010000 I
b00000000000000000000100010010011 J
b10000 M
b10000 Q
b00000000000000000000100000010011 R
b00000000000000000000000010001100 S
b01111 T
b01110 [
b00000000000000000000000000010000 c
b10001 f
b10001 l
b000000000000010010100 5!
17!
b00000000000000000000100100010011 9!
#265
07!
#270
b00000000000000000000100100010011 '
b10010 +
b10001 2
b10000 :
b00000000000000000000000010011000 G
b00000000000000000000000010010100 I
b00000000000000000000100100010011 J
b10001 M
b10001 Q
b00000000000000000000100010010011 R
b00000000000000000000000010010000 S
b10000 T
b01111 [
b00000000000000000000000000010001 c
b10010 f
b10010 l
b000000000000010011000 5!
17!
b00000000000000000000100110010011 9!
#275
07!
#280
b00000000000000000000100110010011 '
b10011 +
b10010 2
b10001 :
b00000000000000000000000010011100 G
b00000000000000000000000010011000 I
b00000000000000000000100110010011 J
b10010 M
b10010 Q
b00000000000000000000100100010011 R
b00000000000000000000000010010100 S
b10001 T
b10000 [
b00000000000000000000000000010010 c
b10011 f
b10011 l
b000000000000010011100 5!
17!
b00000000000000000000101000010011 9!
#285
07!
#290
b00000000000000000000101000010011 '
b10100 +
b10011 2
b10010 :
b00000000000000000000000010100000 G
b00000000000000000000000010011100 I
b00000000000000000000101000010011 J
b10011 M
b10011 Q
b00000000000000000000100110010011 R
b00000000000000000000000010011000 S
b10010 T
b10001 [
b00000000000000000000000000010011 c
b10100 f
b10100 l
b000000000000010100000 5!
17!
b00000000000000000000101010010011 9!
#295
07!
#300
b00000000000000000000101010010011 '
b10101 +
b10100 2
b10011 :
b00000000000000000000000010100100 G
b00000000000000000000000010100000 I
b00000000000000000000101010010011 J
b10100 M
b10100 Q
b00000000000000000000101000010011 R
b00000000000000000000000010011100 S
b10011 T
b10010 [
b00000000000000000000000000010100 c
b10101 f
b10101 l
b000000000000010100100 5!
17!
b00000000000000000000101100010011 9!
#305
07!
#310
b00000000000000000000101100010011 '
b10110 +
b10101 2
b10100 :
b00000000000000000000000010101000 G
b00000000000000000000000010100100 I
b00000000000000000000101100010011 J
b10101 M
b10101 Q
b00000000000000000000101010010011 R
b00000000000000000000000010100000 S
b10100 T
b10011 [
b00000000000000000000000000010101 c
b10110 f
b10110 l
b000000000000010101000 5!
17!
b00000000000000000000101110010011 9!
#315
07!
#320
b00000000000000000000101110010011 '
b10111 +
b10110 2
b10101 :
b00000000000000000000000010101100 G
b00000000000000000000000010101000 I
b00000000000000000000101110010011 J
b10110 M
b10110 Q
b00000000000000000000101100010011 R
b00000000000000000000000010100100 S
b10101 T
b10100 [
b00000000000000000000000000010110 c
b10111 f
b10111 l
b000000000000010101100 5!
17!
b00000000000000000000110000010011 9!
#325
07!
#330
b00000000000000000000110000010011 '
b11000 +
b10111 2
b10110 :
b00000000000000000000000010110000 G
b00000000000000000000000010101100 I
b00000000000000000000110000010011 J
b10111 M
b10111 Q
b00000000000000000000101110010011 R
b00000000000000000000000010101000 S
b10110 T
b10101 [
b00000000000000000000000000010111 c
b11000 f
b11000 l
b000000000000010110000 5!
17!
b00000000000000000000110010010011 9!
#335
07!
#340
b00000000000000000000110010010011 '
b11001 +
b11000 2
b10111 :
b00000000000000000000000010110100 G
b00000000000000000000000010110000 I
b00000000000000000000110010010011 J
b11000 M
b11000 Q
b00000000000000000000110000010011 R
b00000000000000000000000010101100 S
b10111 T
b10110 [
b00000000000000000000000000011000 c
b11001 f
b11001 l
b000000000000010110100 5!
17!
b00000000000000000000110100010011 9!
#345
07!
#350
b00000000000000000000110100010011 '
b11010 +
b11001 2
b11000 :
b00000000000000000000000010111000 G
b00000000000000000000000010110100 I
b00000000000000000000110100010011 J
b11001 M
b11001 Q
b00000000000000000000110010010011 R
b00000000000000000000000010110000 S
b11000 T
b10111 [
b00000000000000000000000000011001 c
b11010 f
b11010 l
b000000000000010111000 5!
17!
b00000000000000000000110110010011 9!
#355
07!
#360
b00000000000000000000110110010011 '
b11011 +
b11010 2
b11001 :
b00000000000000000000000010111100 G
b00000000000000000000000010111000 I
b00000000000000000000110110010011 J
b11010 M
b11010 Q
b00000000000000000000110100010011 R
b00000000000000000000000010110100 S
b11001 T
b11000 [
b00000000000000000000000000011010 c
b11011 f
b11011 l
b000000000000010111100 5!
17!
b00000000000000000000111000010011 9!
#365
07!
