Junior/111-2/Soc/riscv_core/wave.vcd
$version Generated by VerilatedVcd $end
$timescale 1s $end

 $scope module top $end
  $var wire  1 Y! clk_i $end
  $var wire  1 Z! halt_o $end
  $var wire  1 X! rst_i $end
  $scope module test_top $end
   $var wire  1 P ce_wire $end
   $var wire  1 Y! clk_i $end
   $var wire  1 % ctrl_flush_jump_o $end
   $var wire 32 & ctrl_new_pc_o [31:0] $end
   $var wire  6 $ ctrl_stall_o [5:0] $end
   $var wire 32 & exe_jump_addr_o [31:0] $end
   $var wire  1 % exe_jump_enable_o $end
   $var wire 32 5 exe_mem_addr_o [31:0] $end
   $var wire 32 6 exe_mem_data_o [31:0] $end
   $var wire 32 _ exe_mem_mem_addr_o [31:0] $end
   $var wire 32 ` exe_mem_mem_data_o [31:0] $end
   $var wire  4 b exe_mem_mem_op_o [3:0] $end
   $var wire  1 a exe_mem_mem_we_o $end
   $var wire  4 8 exe_mem_op_o [3:0] $end
   $var wire  5 \ exe_mem_reg_waddr_o [4:0] $end
   $var wire 32 ^ exe_mem_reg_wdata_o [31:0] $end
   $var wire  1 ] exe_mem_reg_we_o $end
   $var wire  1 7 exe_mem_we_o $end
   $var wire  5 2 exe_reg_waddr_o [4:0] $end
   $var wire 32 4 exe_reg_wdata_o [31:0] $end
   $var wire  1 3 exe_reg_we_o $end
   $var wire  1 9 exe_stallreq_o $end
   $var wire  1 N halt_o $end
   $var wire 32 [ id_exe_inst_addr_o [31:0] $end
   $var wire  1 T id_exe_inst_is_load_o $end
   $var wire 32 Z id_exe_inst_o [31:0] $end
   $var wire 32 V id_exe_op1_o [31:0] $end
   $var wire 32 W id_exe_op2_o [31:0] $end
   $var wire  5 U id_exe_rd_o [4:0] $end
   $var wire  5 Y id_exe_reg_waddr_o [4:0] $end
   $var wire  1 X id_exe_reg_we_o $end
   $var wire 32 Q id_inst_addr_o [31:0] $end
   $var wire 32 ' id_inst_o [31:0] $end
   $var wire 32 ( id_op1_o [31:0] $end
   $var wire 32 ) id_op2_o [31:0] $end
   $var wire  5 , id_reg1_addr_o [4:0] $end
   $var wire  1 . id_reg1_re_o $end
   $var wire  5 - id_reg2_addr_o [4:0] $end
   $var wire  1 / id_reg2_re_o $end
   $var wire  5 + id_reg_waddr_o [4:0] $end
   $var wire  1 * id_reg_we_o $end
   $var wire  1 S id_stallreq_o $end
   $var wire 32 Q if_id_inst_addr_o [31:0] $end
   $var wire 32 R if_id_inst_o [31:0] $end
   $var wire 32 O if_inst_addr_o [31:0] $end
   $var wire 32 [! if_inst_o [31:0] $end
   $var wire  1 N mem_halt_o $end
   $var wire 32 = mem_ram_addr_o [31:0] $end
   $var wire 32 ? mem_ram_data_o [31:0] $end
   $var wire  1 > mem_ram_w_request_o $end
   $var wire  5 : mem_reg_waddr_o [4:0] $end
   $var wire 32 < mem_reg_wdata_o [31:0] $end
   $var wire  1 ; mem_reg_we_o $end
   $var wire  5 c mem_wb_reg_waddr_o [4:0] $end
   $var wire 32 e mem_wb_reg_wdata_o [31:0] $end
   $var wire  1 d mem_wb_reg_we_o $end
   $var wire 32 O pc_wire [31:0] $end
   $var wire 32 @ ram_data_o [31:0] $end
   $var wire 32 0 reg1_data_o [31:0] $end
   $var wire 32 1 reg2_data_o [31:0] $end
   $var wire  1 X! rst_i $end
   $scope module ctrl0 $end
    $var wire  1 % flush_jump_o $end
    $var wire 32 & jump_addr_i [31:0] $end
    $var wire  1 % jump_enable_i $end
    $var wire 32 & new_pc_o [31:0] $end
    $var wire  1 X! rst_i $end
    $var wire  6 $ stall_o [5:0] $end
    $var wire  1 9 stallreq_from_exe_i $end
    $var wire  1 S stallreq_from_id_i $end
   $upscope $end
   $scope module data_ram0 $end
    $var wire 32 h! RAM_ADDR_WIDTH [31:0] $end
    $var wire 32 g! RAM_SIZE [31:0] $end
    $var wire 21 M addr4 [20:0] $end
    $var wire 32 = addr_i [31:0] $end
    $var wire  1 Y! clk_i $end
    $var wire 32 ? data_i [31:0] $end
    $var wire 32 @ data_o [31:0] $end
    $var wire  1 P inst_ce_i $end
    $var wire 32 [! inst_o [31:0] $end
    $var wire 32 O pc_i [31:0] $end
    $var wire 21 W! rom_addr4 [20:0] $end
    $var wire  1 X! rst_i $end
    $var wire  1 > we_i $end
   $upscope $end
   $scope module exe0 $end
    $var wire 32 A a_o [31:0] $end
    $var wire 32 B b_o [31:0] $end
    $var wire  1 Y! clk_i $end
    $var wire  1 ]! div_ready_i $end
    $var wire  1 \! div_req_o $end
    $var wire 64 ^! div_result_i [63:0] $end
    $var wire  3 g funct3 [2:0] $end
    $var wire  7 h funct7 [6:0] $end
    $var wire 32 [ inst_addr_i [31:0] $end
    $var wire 32 Z inst_i [31:0] $end
    $var wire 64 D invert_result [63:0] $end
    $var wire  1 j isType_m $end
    $var wire  1 i isType_r $end
    $var wire  1 q is_a_neg $end
    $var wire  1 r is_b_neg $end
    $var wire 32 & jump_addr_o [31:0] $end
    $var wire  1 % jump_enable_o $end
    $var wire 32 k load_addr_offset [31:0] $end
    $var wire 32 5 mem_addr_o [31:0] $end
    $var wire 32 6 mem_data_o [31:0] $end
    $var wire  4 8 mem_op_o [3:0] $end
    $var wire  1 7 mem_we_o $end
    $var wire  1 n mult_ready_i $end
    $var wire  1 C mult_req_o $end
    $var wire 64 o mult_result_i [63:0] $end
    $var wire  1 m op1_eq_op2 $end
    $var wire 32 V op1_i [31:0] $end
    $var wire 32 W op2_i [31:0] $end
    $var wire  7 f opcode [6:0] $end
    $var wire 32 [ pc [31:0] $end
    $var wire  5 Y reg_waddr_i [4:0] $end
    $var wire  5 2 reg_waddr_o [4:0] $end
    $var wire 32 4 reg_wdata_o [31:0] $end
    $var wire  1 X reg_we_i $end
    $var wire  1 3 reg_we_o $end
    $var wire  1 X! rst_i $end
    $var wire  1 s signed_adjust $end
    $var wire  1 9 stallreq_o $end
    $var wire 32 l store_addr_offset [31:0] $end
    $scope module mul0 $end
     $var wire  3 { S [2:0] $end
     $var wire  3 b! S_CALC [2:0] $end
     $var wire  3 c! S_DONE [2:0] $end
     $var wire  3 a! S_IDLE [2:0] $end
     $var wire  3 H S_nxt [2:0] $end
     $var wire 32 `! XLEN [31:0] $end
     $var wire 32 A a_i [31:0] $end
     $var wire 32 u adder_opa [31:0] $end
     $var wire 32 } adder_opb [31:0] $end
     $var wire 33 ~ adder_tmp [32:0] $end
     $var wire 32 B b_i [31:0] $end
     $var wire  1 Y! clk_i $end
     $var wire  6 y cnt [5:0] $end
     $var wire  1 F is_a_zero $end
     $var wire  1 G is_b_zero $end
     $var wire  1 t is_calc_done $end
     $var wire  1 z is_ready $end
     $var wire  1 | mul_add $end
     $var wire 32 A op_a [31:0] $end
     $var wire 32 B op_b [31:0] $end
     $var wire  1 n ready_o $end
     $var wire 32 u reg32 [31:0] $end
     $var wire  1 C req_i $end
     $var wire 65 v result [64:0] $end
     $var wire 64 o result_o [63:0] $end
     $var wire 65 "! result_tmp [64:0] $end
     $var wire  1 X! rst_i $end
    $upscope $end
   $upscope $end
   $scope module exe_mem0 $end
    $var wire  1 Y! clk_i $end
    $var wire 32 5 mem_addr_i [31:0] $end
    $var wire 32 _ mem_addr_o [31:0] $end
    $var wire 32 6 mem_data_i [31:0] $end
    $var wire 32 ` mem_data_o [31:0] $end
    $var wire  4 8 mem_op_i [3:0] $end
    $var wire  4 b mem_op_o [3:0] $end
    $var wire  1 7 mem_we_i $end
    $var wire  1 a mem_we_o $end
    $var wire  5 2 reg_waddr_i [4:0] $end
    $var wire  5 \ reg_waddr_o [4:0] $end
    $var wire 32 4 reg_wdata_i [31:0] $end
    $var wire 32 ^ reg_wdata_o [31:0] $end
    $var wire  1 3 reg_we_i $end
    $var wire  1 ] reg_we_o $end
    $var wire  1 X! rst_i $end
    $var wire  6 $ stall_i [5:0] $end
   $upscope $end
   $scope module id0 $end
    $var wire  5 U exe_rd_i [4:0] $end
    $var wire  5 2 exe_reg_waddr_i [4:0] $end
    $var wire 32 4 exe_reg_wdata_i [31:0] $end
    $var wire  1 3 exe_reg_we_i $end
    $var wire 32 0 i_op1_o [31:0] $end
    $var wire 32 ,! i_op2_o [31:0] $end
    $var wire  5 '! i_reg1_raddr_o [4:0] $end
    $var wire  1 e! i_reg1_re_o $end
    $var wire  5 d! i_reg2_raddr_o [4:0] $end
    $var wire  1 f! i_reg2_re_o $end
    $var wire  5 .! i_reg_waddr_o [4:0] $end
    $var wire  1 e! i_reg_we_o $end
    $var wire 32 Q inst_addr_i [31:0] $end
    $var wire 32 Q inst_addr_o [31:0] $end
    $var wire 32 R inst_i [31:0] $end
    $var wire 32 ' inst_o [31:0] $end
    $var wire  1 S is_load_hazard $end
    $var wire  5 : mem_reg_waddr_i [4:0] $end
    $var wire 32 < mem_reg_wdata_i [31:0] $end
    $var wire  1 ; mem_reg_we_i $end
    $var wire 32 ( op1_o [31:0] $end
    $var wire 32 I op1_o_final [31:0] $end
    $var wire 32 ) op2_o [31:0] $end
    $var wire 32 J op2_o_final [31:0] $end
    $var wire  7 %! opcode [6:0] $end
    $var wire  1 T pre_inst_is_load_i $end
    $var wire 32 K r_op1_o [31:0] $end
    $var wire 32 L r_op2_o [31:0] $end
    $var wire  5 (! r_reg1_raddr_o [4:0] $end
    $var wire  1 *! r_reg1_re_o $end
    $var wire  5 )! r_reg2_raddr_o [4:0] $end
    $var wire  1 +! r_reg2_re_o $end
    $var wire  5 /! r_reg_waddr_o [4:0] $end
    $var wire  1 -! r_reg_we_o $end
    $var wire  5 &! rd [4:0] $end
    $var wire  5 , reg1_raddr_o [4:0] $end
    $var wire 32 0 reg1_rdata_i [31:0] $end
    $var wire  1 . reg1_re_o $end
    $var wire  5 - reg2_raddr_o [4:0] $end
    $var wire 32 1 reg2_rdata_i [31:0] $end
    $var wire  1 / reg2_re_o $end
    $var wire  5 + reg_waddr_o [4:0] $end
    $var wire  1 * reg_we_o $end
    $var wire  5 0! rs1 [4:0] $end
    $var wire  5 1! rs2 [4:0] $end
    $var wire  1 X! rst_i $end
    $var wire  1 S stallreq_o $end
    $scope module inst_type_i $end
     $var wire  3 2! funct3 [2:0] $end
     $var wire 32 R inst_i [31:0] $end
     $var wire 32 0 op1_o [31:0] $end
     $var wire 32 ,! op2_o [31:0] $end
     $var wire  5 &! rd [4:0] $end
     $var wire  5 '! reg1_raddr_o [4:0] $end
     $var wire 32 0 reg1_rdata_i [31:0] $end
     $var wire  1 e! reg1_re_o $end
     $var wire  5 d! reg2_raddr_o [4:0] $end
     $var wire 32 1 reg2_rdata_i [31:0] $end
     $var wire  1 f! reg2_re_o $end
     $var wire  5 .! reg_waddr_o [4:0] $end
     $var wire  1 e! reg_we_o $end
     $var wire  5 0! rs1 [4:0] $end
     $var wire  5 1! rs2 [4:0] $end
    $upscope $end
    $scope module inst_type_r $end
     $var wire  3 2! funct3 [2:0] $end
     $var wire  7 3! funct7 [6:0] $end
     $var wire 32 R inst_i [31:0] $end
     $var wire  1 5! isType_m $end
     $var wire  1 4! isType_r $end
     $var wire 32 K op1_o [31:0] $end
     $var wire 32 L op2_o [31:0] $end
     $var wire  7 %! opcode [6:0] $end
     $var wire  5 &! rd [4:0] $end
     $var wire  5 (! reg1_raddr_o [4:0] $end
     $var wire 32 0 reg1_rdata_i [31:0] $end
     $var wire  1 *! reg1_re_o $end
     $var wire  5 )! reg2_raddr_o [4:0] $end
     $var wire 32 1 reg2_rdata_i [31:0] $end
     $var wire  1 +! reg2_re_o $end
     $var wire  5 /! reg_waddr_o [4:0] $end
     $var wire  1 -! reg_we_o $end
     $var wire  5 0! rs1 [4:0] $end
     $var wire  5 1! rs2 [4:0] $end
     $var wire  5 1! shamt [4:0] $end
    $upscope $end
   $upscope $end
   $scope module id_exe0 $end
    $var wire  1 Y! clk_i $end
    $var wire  1 % flush_jump_i $end
    $var wire 32 Q inst_addr_i [31:0] $end
    $var wire 32 [ inst_addr_o [31:0] $end
    $var wire 32 ' inst_i [31:0] $end
    $var wire  1 T inst_is_load_o $end
    $var wire 32 Z inst_o [31:0] $end
    $var wire 32 ( op1_i [31:0] $end
    $var wire 32 V op1_o [31:0] $end
    $var wire 32 ) op2_i [31:0] $end
    $var wire 32 W op2_o [31:0] $end
    $var wire  5 U rd_o [4:0] $end
    $var wire  5 + reg_waddr_i [4:0] $end
    $var wire  5 Y reg_waddr_o [4:0] $end
    $var wire  1 * reg_we_i $end
    $var wire  1 X reg_we_o $end
    $var wire  1 X! rst_i $end
    $var wire  6 $ stall_i [5:0] $end
   $upscope $end
   $scope module if_id0 $end
    $var wire  1 Y! clk_i $end
    $var wire  1 % flush_jump_i $end
    $var wire 32 O inst_addr_i [31:0] $end
    $var wire 32 Q inst_addr_o [31:0] $end
    $var wire 32 [! inst_i [31:0] $end
    $var wire 32 R inst_o [31:0] $end
    $var wire  1 X! rst_i $end
    $var wire  6 $ stall_i [5:0] $end
   $upscope $end
   $scope module mem0 $end
    $var wire  1 Y! clk_i $end
    $var wire  1 N halt_o $end
    $var wire 32 _ mem_addr_i [31:0] $end
    $var wire 32 ` mem_data_i [31:0] $end
    $var wire  4 b mem_op_i [3:0] $end
    $var wire  1 a mem_we_i $end
    $var wire 32 = ram_addr_o [31:0] $end
    $var wire  2 6! ram_addr_offset [1:0] $end
    $var wire 32 @ ram_data_i [31:0] $end
    $var wire 32 ? ram_data_o [31:0] $end
    $var wire  1 > ram_w_request_o $end
    $var wire  5 \ reg_waddr_i [4:0] $end
    $var wire  5 : reg_waddr_o [4:0] $end
    $var wire 32 ^ reg_wdata_i [31:0] $end
    $var wire 32 < reg_wdata_o [31:0] $end
    $var wire  1 ] reg_we_i $end
    $var wire  1 ; reg_we_o $end
    $var wire  1 X! rst_i $end
   $upscope $end
   $scope module mem_wb0 $end
    $var wire  1 Y! clk_i $end
    $var wire  5 : reg_waddr_i [4:0] $end
    $var wire  5 c reg_waddr_o [4:0] $end
    $var wire 32 < reg_wdata_i [31:0] $end
    $var wire 32 e reg_wdata_o [31:0] $end
    $var wire  1 ; reg_we_i $end
    $var wire  1 d reg_we_o $end
    $var wire  1 X! rst_i $end
    $var wire  6 $ stall_i [5:0] $end
   $upscope $end
   $scope module pc_reg0 $end
    $var wire  1 P ce_o $end
    $var wire  1 Y! clk_i $end
    $var wire  1 % flush_jump_i $end
    $var wire 32 & new_pc_i [31:0] $end
    $var wire 32 O pc_o [31:0] $end
    $var wire  1 X! rst_i $end
    $var wire  6 $ stall_i [5:0] $end
   $upscope $end
   $scope module regfile0 $end
    $var wire  1 Y! clk_i $end
    $var wire 32 # i [31:0] $end
    $var wire  5 , raddr1_i [4:0] $end
    $var wire  5 - raddr2_i [4:0] $end
    $var wire 32 0 rdata1_o [31:0] $end
    $var wire 32 1 rdata2_o [31:0] $end
    $var wire  1 . re1_i $end
    $var wire  1 / re2_i $end
    $var wire 32 7! regs[0] [31:0] $end
    $var wire 32 A! regs[10] [31:0] $end
    $var wire 32 B! regs[11] [31:0] $end
    $var wire 32 C! regs[12] [31:0] $end
    $var wire 32 D! regs[13] [31:0] $end
    $var wire 32 E! regs[14] [31:0] $end
    $var wire 32 F! regs[15] [31:0] $end
    $var wire 32 G! regs[16] [31:0] $end
    $var wire 32 H! regs[17] [31:0] $end
    $var wire 32 I! regs[18] [31:0] $end
    $var wire 32 J! regs[19] [31:0] $end
    $var wire 32 8! regs[1] [31:0] $end
    $var wire 32 K! regs[20] [31:0] $end
    $var wire 32 L! regs[21] [31:0] $end
    $var wire 32 M! regs[22] [31:0] $end
    $var wire 32 N! regs[23] [31:0] $end
    $var wire 32 O! regs[24] [31:0] $end
    $var wire 32 P! regs[25] [31:0] $end
    $var wire 32 Q! regs[26] [31:0] $end
    $var wire 32 R! regs[27] [31:0] $end
    $var wire 32 S! regs[28] [31:0] $end
    $var wire 32 T! regs[29] [31:0] $end
    $var wire 32 9! regs[2] [31:0] $end
    $var wire 32 U! regs[30] [31:0] $end
    $var wire 32 V! regs[31] [31:0] $end
    $var wire 32 :! regs[3] [31:0] $end
    $var wire 32 ;! regs[4] [31:0] $end
    $var wire 32 <! regs[5] [31:0] $end
    $var wire 32 =! regs[6] [31:0] $end
    $var wire 32 >! regs[7] [31:0] $end
    $var wire 32 ?! regs[8] [31:0] $end
    $var wire 32 @! regs[9] [31:0] $end
    $var wire  1 X! rst_i $end
    $var wire  5 c waddr_i [4:0] $end
    $var wire 32 e wdata_i [31:0] $end
    $var wire  1 d we_i $end
   $upscope $end
  $upscope $end
 $upscope $end
$enddefinitions $end


#5
b00000000000000000000000000100000 #
b000000 $
0%
b00000000000000000000000000000000 &
b00000000000000000000000000010011 '
b00000000000000000000000000000000 (
b00000000000000000000000000000000 )
0*
b00000 +
b00000 ,
b00000 -
0.
0/
b00000000000000000000000000000000 0
b00000000000000000000000000000000 1
b00000 2
03
b00000000000000000000000000000000 4
b00000000000000000000000000000000 5
b00000000000000000000000000000000 6
07
b0000 8
09
b00000 :
1;
b00000000000000000000000000000000 <
b00000000000000000000000000000000 =
0>
b00000000000000000000000000000000 ?
b00000000000000000000000000000000 @
b00000000000000000000000000000000 A
b00000000000000000000000000000000 B
0C
b0000000000000000000000000000000000000000000000000000000000000000 D
1F
1G
b011 H
b00000000000000000000000000000000 I
b00000000000000000000000000000000 J
b00000000000000000000000000000000 K
b00000000000000000000000000000000 L
b000000000000000000000 M
0N
b00000000000000000000000000000000 O
0P
b00000000000000000000000000000000 Q
b00000000000000000000000000000000 R
0S
0T
b00000 U
b00000000000000000000000000000000 V
b00000000000000000000000000000000 W
0X
b00000 Y
b00000000000000000000000000000000 Z
b00000000000000000000000000000000 [
b00000 \
0]
b00000000000000000000000000000000 ^
b00000000000000000000000000000000 _
b00000000000000000000000000000000 `
0a
b0000 b
b00000 c
0d
b00000000000000000000000000000000 e
b0000000 f
b000 g
b0000000 h
0i
0j
b00000000000000000000000000000000 k
b00000000000000000000000000000000 l
1m
0n
b0000000000000000000000000000000000000000000000000000000000000000 o
0q
0r
0s
1t
b00000000000000000000000000000000 u
b00000000000000000000000000000000000000000000000000000000000000000 v
b000000 y
0z
b000 {
0|
b00000000000000000000000000000000 }
b000000000000000000000000000000000 ~
b00000000000000000000000000000000000000000000000000000000000000000 "!
b0000000 %!
b00000 &!
b00000 '!
b00000 (!
b00000 )!
0*!
0+!
b00000000000000000000000000000000 ,!
0-!
b00000 .!
b00000 /!
b00000 0!
b00000 1!
b000 2!
b0000000 3!
04!
05!
b00 6!
b00000000000000000000000000000000 7!
b00000000000000000000000000000000 8!
b00000000000000000000000000000000 9!
b00000000000000000000000000000000 :!
b00000000000000000000000000000000 ;!
b00000000000000000000000000000000 <!
b00000000000000000000000000000000 =!
b00000000000000000000000000000000 >!
b00000000000000000000000000000000 ?!
b00000000000000000000000000000000 @!
b00000000000000000000000000000000 A!
b00000000000000000000000000000000 B!
b00000000000000000000000000000000 C!
b00000000000000000000000000000000 D!
b00000000000000000000000000000000 E!
b00000000000000000000000000000000 F!
b00000000000000000000000000000000 G!
b00000000000000000000000000000000 H!
b00000000000000000000000000000000 I!
b00000000000000000000000000000000 J!
b00000000000000000000000000000000 K!
b00000000000000000000000000000000 L!
b00000000000000000000000000000000 M!
b00000000000000000000000000000000 N!
b00000000000000000000000000000000 O!
b00000000000000000000000000000000 P!
b00000000000000000000000000000000 Q!
b00000000000000000000000000000000 R!
b00000000000000000000000000000000 S!
b00000000000000000000000000000000 T!
b00000000000000000000000000000000 U!
b00000000000000000000000000000000 V!
b000000000000000000000 W!
1X!
0Y!
0Z!
b00000000000000000000000000000000 [!
0\!
0]!
b0000000000000000000000000000000000000000000000000000000000000000 ^!
b00000000000000000000000000100000 `!
b000 a!
b001 b!
b011 c!
b00000 d!
1e!
0f!
b00000000001000000000000000000000 g!
b00000000000000000000000000010101 h!
#10
b00000000000000000000000000010011 R
b00000000000000000000000000010011 Z
1]
1d
b0010011 f
b0010011 %!
1Y!
#15
0Y!
#20
1Y!
#25
0Y!
#30
1Y!
#35
0Y!
#40
1Y!
#45
0Y!
#50
1Y!
#55
1*
1.
b00000101000000000000000001101111 @
0X!
0Y!
#60
0*
0.
13
0;
1P
b00000000000000000000000000000000 R
1X
0]
b0000000 %!
1Y!
b00000101000000000000000001101111 [!
#65
0Y!
#70
b00000101000000000000000001101111 '
1*
03
1;
b00000000000000000000000000000100 O
b00000101000000000000000001101111 R
0X
1]
0d
b1101111 %!
b00000000000000000000000001010000 ,!
b10000 1!
b0000010 3!
b000000000000000000100 W!
1Y!
b00110100001000000010111101110011 [!
#75
0Y!
#80
1%
b00000000000000000000000001010000 &
b00000000000000000000000000010011 '
0*
13
b00000000000000000000000000000100 4
0;
b00000000000000000000000000001000 O
b00000000000000000000000000000100 Q
b00110100001000000010111101110011 R
1X
b00000101000000000000000001101111 Z
0]
1d
b1101111 f
b0000010 h
b00000000000000000000000001010000 k
b00000000000000000000000001000000 l
b1110011 %!
b11110 &!
b00000000000000000000001101000010 ,!
b11110 .!
b00010 1!
b010 2!
b0011010 3!
b000000000000000001000 W!
1Y!
b00000000100000000000111110010011 [!
#85
0Y!
#90
0%
1*
1.
03
b00000000000000000000000000000000 4
1;
b00000000000000000000000000000100 <
b00000000000000000000000001010000 O
b00000000000000000000000000000000 Q
b00000000000000000000000000010011 R
0X
b00000000000000000000000000010011 Z
1]
b00000000000000000000000000000100 ^
0d
b0010011 f
b0000000 h
b00000000000000000000000000000000 k
b00000000000000000000000000000000 l
b0010011 %!
b00000 &!
b00000000000000000000000000000000 ,!
b00000 .!
b00000 1!
b000 2!
b0000000 3!
b000000000000001010000 W!
1Y!
b00000000000000000000000010010011 [!
#95
0Y!
#100
b00000000000000000000000010010011 '
b00001 +
13
0;
b00000000000000000000000000000000 <
b00000000000000000000000001010100 O
b00000000000000000000000001010000 Q
b00000000000000000000000010010011 R
1X
0]
b00000000000000000000000000000000 ^
1d
b00000000000000000000000000000100 e
b00001 &!
b00001 .!
b000000000000001010100 W!
1Y!
b00000000000000000000000100010011 [!
#105
0Y!
#110
b00000000000000000000000100010011 '
b00010 +
b00001 2
1;
b00000000000000000000000001011000 O
b00000000000000000000000001010100 Q
b00000000000000000000000100010011 R
b00001 U
b00001 Y
b00000000000000000000000010010011 Z
b00000000000000000000000001010000 [
1]
0d
b00000000000000000000000000000000 e
b00000000000000000000000000000001 l
b00010 &!
b00010 .!
b000000000000001011000 W!
1Y!
b00000000000000000000000110010011 [!
#115
0Y!
#120
b00000000000000000000000110010011 '
b00011 +
b00010 2
b00001 :
b00000000000000000000000001011100 O
b00000000000000000000000001011000 Q
b00000000000000000000000110010011 R
b00010 U
b00010 Y
b00000000000000000000000100010011 Z
b00000000000000000000000001010100 [
b00001 \
1d
b00000000000000000000000000000010 l
b00011 &!
b00011 .!
b000000000000001011100 W!
1Y!
b00000000000000000000001000010011 [!
#125
0Y!
#130
b00000000000000000000001000010011 '
b00100 +
b00011 2
b00010 :
b00000000000000000000000001100000 O
b00000000000000000000000001011100 Q
b00000000000000000000001000010011 R
b00011 U
b00011 Y
b00000000000000000000000110010011 Z
b00000000000000000000000001011000 [
b00010 \
b00001 c
b00000000000000000000000000000011 l
b00100 &!
b00100 .!
b000000000000001100000 W!
1Y!
b00000000000000000000001010010011 [!
#135
0Y!
#140
b00000000000000000000001010010011 '
b00101 +
b00100 2
b00011 :
b00000000000000000000000001100100 O
b00000000000000000000000001100000 Q
b00000000000000000000001010010011 R
b00100 U
b00100 Y
b00000000000000000000001000010011 Z
b00000000000000000000000001011100 [
b00011 \
b00010 c
b00000000000000000000000000000100 l
b00101 &!
b00101 .!
b000000000000001100100 W!
1Y!
b00000000000000000000001100010011 [!
#145
0Y!
#150
b00000000000000000000001100010011 '
b00110 +
b00101 2
b00100 :
b00000000000000000000000001101000 O
b00000000000000000000000001100100 Q
b00000000000000000000001100010011 R
b00101 U
b00101 Y
b00000000000000000000001010010011 Z
b00000000000000000000000001100000 [
b00100 \
b00011 c
b00000000000000000000000000000101 l
b00110 &!
b00110 .!
b000000000000001101000 W!
1Y!
b00000000000000000000001110010011 [!
#155
0Y!
#160
b00000000000000000000001110010011 '
b00111 +
b00110 2
b00101 :
b00000000000000000000000001101100 O
b00000000000000000000000001101000 Q
b00000000000000000000001110010011 R
b00110 U
b00110 Y
b00000000000000000000001100010011 Z
b00000000000000000000000001100100 [
b00101 \
b00100 c
b00000000000000000000000000000110 l
b00111 &!
b00111 .!
b000000000000001101100 W!
1Y!
b00000000000000000000010000010011 [!
#165
0Y!
#170
b00000000000000000000010000010011 '
b01000 +
b00111 2
b00110 :
b00000000000000000000000001110000 O
b00000000000000000000000001101100 Q
b00000000000000000000010000010011 R
b00111 U
b00111 Y
b00000000000000000000001110010011 Z
b00000000000000000000000001101000 [
b00110 \
b00101 c
b00000000000000000000000000000111 l
b01000 &!
b01000 .!
b000000000000001110000 W!
1Y!
b00000000000000000000010010010011 [!
#175
0Y!
#180
b00000000000000000000010010010011 '
b01001 +
b01000 2
b00111 :
b00000000000000000000000001110100 O
b00000000000000000000000001110000 Q
b00000000000000000000010010010011 R
b01000 U
b01000 Y
b00000000000000000000010000010011 Z
b00000000000000000000000001101100 [
b00111 \
b00110 c
b00000000000000000000000000001000 l
b01001 &!
b01001 .!
b000000000000001110100 W!
1Y!
b00000000000000000000010100010011 [!
#185
0Y!
#190
b00000000000000000000010100010011 '
b01010 +
b01001 2
b01000 :
b00000000000000000000000001111000 O
b00000000000000000000000001110100 Q
b00000000000000000000010100010011 R
b01001 U
b01001 Y
b00000000000000000000010010010011 Z
b00000000000000000000000001110000 [
b01000 \
b00111 c
b00000000000000000000000000001001 l
b01010 &!
b01010 .!
b000000000000001111000 W!
1Y!
b00000000000000000000010110010011 [!
#195
0Y!
#200
b00000000000000000000010110010011 '
b01011 +
b01010 2
b01001 :
b00000000000000000000000001111100 O
b00000000000000000000000001111000 Q
b00000000000000000000010110010011 R
b01010 U
b01010 Y
b00000000000000000000010100010011 Z
b00000000000000000000000001110100 [
b01001 \
b01000 c
b00000000000000000000000000001010 l
b01011 &!
b01011 .!
b000000000000001111100 W!
1Y!
b00000000000000000000011000010011 [!
#205
0Y!
#210
b00000000000000000000011000010011 '
b01100 +
b01011 2
b01010 :
b00000000000000000000000010000000 O
b00000000000000000000000001111100 Q
b00000000000000000000011000010011 R
b01011 U
b01011 Y
b00000000000000000000010110010011 Z
b00000000000000000000000001111000 [
b01010 \
b01001 c
b00000000000000000000000000001011 l
b01100 &!
b01100 .!
b000000000000010000000 W!
1Y!
b00000000000000000000011010010011 [!
#215
0Y!
#220
b00000000000000000000011010010011 '
b01101 +
b01100 2
b01011 :
b00000000000000000000000010000100 O
b00000000000000000000000010000000 Q
b00000000000000000000011010010011 R
b01100 U
b01100 Y
b00000000000000000000011000010011 Z
b00000000000000000000000001111100 [
b01011 \
b01010 c
b00000000000000000000000000001100 l
b01101 &!
b01101 .!
b000000000000010000100 W!
1Y!
b00000000000000000000011100010011 [!
#225
0Y!
#230
b00000000000000000000011100010011 '
b01110 +
b01101 2
b01100 :
b00000000000000000000000010001000 O
b00000000000000000000000010000100 Q
b00000000000000000000011100010011 R
b01101 U
b01101 Y
b00000000000000000000011010010011 Z
b00000000000000000000000010000000 [
b01100 \
b01011 c
b00000000000000000000000000001101 l
b01110 &!
b01110 .!
b000000000000010001000 W!
1Y!
b00000000000000000000011110010011 [!
#235
0Y!
#240
b00000000000000000000011110010011 '
b01111 +
b01110 2
b01101 :
b00000000000000000000000010001100 O
b00000000000000000000000010001000 Q
b00000000000000000000011110010011 R
b01110 U
b01110 Y
b00000000000000000000011100010011 Z
b00000000000000000000000010000100 [
b01101 \
b01100 c
b00000000000000000000000000001110 l
b01111 &!
b01111 .!
b000000000000010001100 W!
1Y!
b00000000000000000000100000010011 [!
#245
0Y!
#250
b00000000000000000000100000010011 '
b10000 +
b01111 2
b01110 :
b00000000000000000000000010010000 O
b00000000000000000000000010001100 Q
b00000000000000000000100000010011 R
b01111 U
b01111 Y
b00000000000000000000011110010011 Z
b00000000000000000000000010001000 [
b01110 \
b01101 c
b00000000000000000000000000001111 l
b10000 &!
b10000 .!
b000000000000010010000 W!
1Y!
b00000000000000000000100010010011 [!
#255
0Y!
#260
b00000000000000000000100010010011 '
b10001 +
b10000 2
b01111 :
b00000000000000000000000010010100 O
b00000000000000000000000010010000 Q
b00000000000000000000100010010011 R
b10000 U
b10000 Y
b00000000000000000000100000010011 Z
b00000000000000000000000010001100 [
b01111 \
b01110 c
b00000000000000000000000000010000 l
b10001 &!
b10001 .!
b000000000000010010100 W!
1Y!
b00000000000000000000100100010011 [!
#265
0Y!
#270
b00000000000000000000100100010011 '
b10010 +
b10001 2
b10000 :
b00000000000000000000000010011000 O
b00000000000000000000000010010100 Q
b00000000000000000000100100010011 R
b10001 U
b10001 Y
b00000000000000000000100010010011 Z
b00000000000000000000000010010000 [
b10000 \
b01111 c
b00000000000000000000000000010001 l
b10010 &!
b10010 .!
b000000000000010011000 W!
1Y!
b00000000000000000000100110010011 [!
#275
0Y!
#280
b00000000000000000000100110010011 '
b10011 +
b10010 2
b10001 :
b00000000000000000000000010011100 O
b00000000000000000000000010011000 Q
b00000000000000000000100110010011 R
b10010 U
b10010 Y
b00000000000000000000100100010011 Z
b00000000000000000000000010010100 [
b10001 \
b10000 c
b00000000000000000000000000010010 l
b10011 &!
b10011 .!
b000000000000010011100 W!
1Y!
b00000000000000000000101000010011 [!
#285
0Y!
