Junior/111-2/Soc/simple_practice/ram/wave.vcd
$version Generated by VerilatedVcd $end
$date Sat Mar  4 23:32:06 2023
 $end
$timescale  10s $end

 $scope module top $end
  $var wire 32 F addr_i [31:0] $end
  $var wire  1 D ce_i $end
  $var wire  1 C clk_i $end
  $var wire 32 G data_i [31:0] $end
  $var wire 32 H data_o [31:0] $end
  $var wire  1 E we_i $end
  $scope module ram $end
   $var wire 32 K MADDR_WIDTH [31:0] $end
   $var wire 32 J MEM_SIZE [31:0] $end
   $var wire 32 J XLEN [31:0] $end
   $var wire  5 I addr4 [4:0] $end
   $var wire 32 F addr_i [31:0] $end
   $var wire  1 D ce_i $end
   $var wire  1 C clk_i $end
   $var wire 32 G data_i [31:0] $end
   $var wire 32 H data_o [31:0] $end
   $var wire  8 # mem(0) [7:0] $end
   $var wire  8 $ mem(1) [7:0] $end
   $var wire  8 - mem(10) [7:0] $end
   $var wire  8 . mem(11) [7:0] $end
   $var wire  8 / mem(12) [7:0] $end
   $var wire  8 0 mem(13) [7:0] $end
   $var wire  8 1 mem(14) [7:0] $end
   $var wire  8 2 mem(15) [7:0] $end
   $var wire  8 3 mem(16) [7:0] $end
   $var wire  8 4 mem(17) [7:0] $end
   $var wire  8 5 mem(18) [7:0] $end
   $var wire  8 6 mem(19) [7:0] $end
   $var wire  8 % mem(2) [7:0] $end
   $var wire  8 7 mem(20) [7:0] $end
   $var wire  8 8 mem(21) [7:0] $end
   $var wire  8 9 mem(22) [7:0] $end
   $var wire  8 : mem(23) [7:0] $end
   $var wire  8 ; mem(24) [7:0] $end
   $var wire  8 < mem(25) [7:0] $end
   $var wire  8 = mem(26) [7:0] $end
   $var wire  8 > mem(27) [7:0] $end
   $var wire  8 ? mem(28) [7:0] $end
   $var wire  8 @ mem(29) [7:0] $end
   $var wire  8 & mem(3) [7:0] $end
   $var wire  8 A mem(30) [7:0] $end
   $var wire  8 B mem(31) [7:0] $end
   $var wire  8 ' mem(4) [7:0] $end
   $var wire  8 ( mem(5) [7:0] $end
   $var wire  8 ) mem(6) [7:0] $end
   $var wire  8 * mem(7) [7:0] $end
   $var wire  8 + mem(8) [7:0] $end
   $var wire  8 , mem(9) [7:0] $end
   $var wire  1 E we_i $end
  $upscope $end
 $upscope $end
$enddefinitions $end


#0
b00000000 #
b00000000 $
b00000000 %
b00000000 &
b00000000 '
b00000000 (
b00000000 )
b00000000 *
b00000000 +
b00000000 ,
b00000000 -
b00000000 .
b00000000 /
b00000000 0
b00000000 1
b00000000 2
b00000000 3
b00000000 4
b00000000 5
b00000000 6
b00000000 7
b00000000 8
b00000000 9
b00000000 :
b00000000 ;
b00000000 <
b00000000 =
b00000000 >
b00000000 ?
b00000000 @
b00000000 A
b00000000 B
0C
1D
0E
b00000000000000000000000000000000 F
b00000000000000000000000000000000 G
b00000000000000000000000000000000 H
b00000 I
b00000000000000000000000000100000 J
b00000000000000000000000000000101 K
#1
1C
1E
#2
0C
#3
b00000001 &
1C
b00000000000000000000000000000001 F
b00000000000000000000000000000001 G
b00000000000000000000000000000001 H
#4
0C
#5
b00000010 &
1C
b00000000000000000000000000000010 F
b00000000000000000000000000000010 G
b00000000000000000000000000000010 H
#6
0C
#7
b00000011 &
1C
b00000000000000000000000000000011 F
b00000000000000000000000000000011 G
b00000000000000000000000000000011 H
#8
0C
#9
b00000100 *
1C
b00000000000000000000000000000100 F
b00000000000000000000000000000100 G
b00000000000000000000000000000100 H
b00100 I
#10
0C
#11
b00000101 *
1C
b00000000000000000000000000000101 F
b00000000000000000000000000000101 G
b00000000000000000000000000000101 H
#12
0C
#13
b00000110 *
1C
b00000000000000000000000000000110 F
b00000000000000000000000000000110 G
b00000000000000000000000000000110 H
#14
0C
#15
b00000111 *
1C
b00000000000000000000000000000111 F
b00000000000000000000000000000111 G
b00000000000000000000000000000111 H
#16
0C
#17
b00001000 .
1C
b00000000000000000000000000001000 F
b00000000000000000000000000001000 G
b00000000000000000000000000001000 H
b01000 I
#18
0C
#19
b00001001 .
1C
b00000000000000000000000000001001 F
b00000000000000000000000000001001 G
b00000000000000000000000000001001 H
#20
0C
#21
b00001010 .
1C
b00000000000000000000000000001010 F
b00000000000000000000000000001010 G
b00000000000000000000000000001010 H
#22
0C
#23
b00001011 .
1C
b00000000000000000000000000001011 F
b00000000000000000000000000001011 G
b00000000000000000000000000001011 H
#24
0C
#25
b00001100 2
1C
b00000000000000000000000000001100 F
b00000000000000000000000000001100 G
b00000000000000000000000000001100 H
b01100 I
#26
0C
#27
b00001101 2
1C
b00000000000000000000000000001101 F
b00000000000000000000000000001101 G
b00000000000000000000000000001101 H
#28
0C
#29
b00001110 2
1C
b00000000000000000000000000001110 F
b00000000000000000000000000001110 G
b00000000000000000000000000001110 H
#30
0C
#31
b00001111 2
1C
b00000000000000000000000000001111 F
b00000000000000000000000000001111 G
b00000000000000000000000000001111 H
#32
0C
#33
1C
0E
b00000000000000000000000000000000 F
b00000000000000000000000000000011 H
b00000 I
#34
0C
#35
1C
b00000000000000000000000000000001 F
#36
0C
#37
1C
b00000000000000000000000000000010 F
#38
0C
#39
1C
b00000000000000000000000000000011 F
#40
0C
#41
1C
b00000000000000000000000000000100 F
b00000000000000000000000000000111 H
b00100 I
#42
0C
#43
1C
b00000000000000000000000000000101 F
#44
0C
#45
1C
b00000000000000000000000000000110 F
#46
0C
#47
1C
b00000000000000000000000000000111 F
#48
0C
#49
1C
b00000000000000000000000000001000 F
b00000000000000000000000000001011 H
b01000 I
#50
0C
#51
1C
b00000000000000000000000000001001 F
#52
0C
#53
1C
b00000000000000000000000000001010 F
#54
0C
#55
1C
b00000000000000000000000000001011 F
#56
0C
#57
1C
b00000000000000000000000000001100 F
b00000000000000000000000000001111 H
b01100 I
#58
0C
#59
1C
b00000000000000000000000000001101 F
#60
0C
#61
1C
b00000000000000000000000000001110 F
#62
0C
#63
1C
b00000000000000000000000000001111 F
