Junior/111-2/Soc/simple_practice/4-bit_adder/wave.vcd
$version Generated by VerilatedVcd $end
$date Tue Feb 21 23:11:20 2023
 $end
$timescale  10s $end

 $scope module TOP $end
  $var wire  4 1 a [3:0] $end
  $var wire  4 2 b [3:0] $end
  $var wire  1 3 c_in $end
  $var wire  1 5 c_out $end
  $var wire  4 4 sum [3:0] $end
  $scope module adder4 $end
   $var wire  4 1 a [3:0] $end
   $var wire  4 2 b [3:0] $end
   $var wire  3 # c [2:0] $end
   $var wire  1 3 c_in $end
   $var wire  1 5 c_out $end
   $var wire  4 4 sum [3:0] $end
   $scope module fa1 $end
    $var wire  1 6 a $end
    $var wire  1 7 b $end
    $var wire  1 : c1 $end
    $var wire  1 ; c2 $end
    $var wire  1 3 c_in $end
    $var wire  1 9 c_out $end
    $var wire  1 $ s1 $end
    $var wire  1 8 sum $end
   $upscope $end
   $scope module fa2 $end
    $var wire  1 < a $end
    $var wire  1 = b $end
    $var wire  1 ? c1 $end
    $var wire  1 ( c2 $end
    $var wire  1 % c_in $end
    $var wire  1 > c_out $end
    $var wire  1 ' s1 $end
    $var wire  1 & sum $end
   $upscope $end
   $scope module fa3 $end
    $var wire  1 @ a $end
    $var wire  1 A b $end
    $var wire  1 C c1 $end
    $var wire  1 , c2 $end
    $var wire  1 ) c_in $end
    $var wire  1 B c_out $end
    $var wire  1 + s1 $end
    $var wire  1 * sum $end
   $upscope $end
   $scope module fa4 $end
    $var wire  1 D a $end
    $var wire  1 E b $end
    $var wire  1 F c1 $end
    $var wire  1 0 c2 $end
    $var wire  1 - c_in $end
    $var wire  1 5 c_out $end
    $var wire  1 / s1 $end
    $var wire  1 . sum $end
   $upscope $end
  $upscope $end
 $upscope $end
$enddefinitions $end


#0
b110 #
1$
0%
0&
0'
0(
1)
1*
0+
0,
1-
1.
0/
00
b0111 1
b0110 2
03
b1101 4
05
16
07
18
09
0:
0;
1<
1=
1>
1?
1@
1A
1B
1C
0D
0E
0F
#1
b011 #
0$
1%
1'
1(
0-
1/
b1001 1
b0011 2
b1100 4
17
08
19
1:
0<
0?
0@
0A
0B
0C
1D
#2
b111 #
0*
1+
1,
1-
0.
10
b0001 1
b1111 2
b0000 4
15
1A
1B
0D
1E
#3
b000 #
0%
1&
0(
0)
1*
0,
0-
0/
00
b1010 1
b1100 2
b0110 4
06
07
09
0:
1<
0=
0>
0B
1D
1F
#4
b001 #
1%
0'
b1001 1
b1101 2
16
17
19
1:
0<
#5
b010 #
1$
0%
0&
1)
0+
b1010 1
b1011 2
b0101 4
06
18
09
0:
1<
1=
1>
1?
0A
#6
1.
1/
b0010 1
b1101 4
05
0D
0F
#7
b110 #
0*
1+
1,
1-
0/
b0011 1
b0110 2
b1001 4
16
07
1A
1B
0E
#8
b000 #
0$
1&
1'
0)
1*
0,
0-
1/
b1100 1
b0010 2
b1110 4
06
08
0<
0>
0?
1@
0A
0B
1D
#9
0&
0'
b0100 1
b1000 2
b1100 4
0=
0D
1E
#10
1$
1&
1'
0*
0+
0.
0/
b1011 1
b0011 4
15
16
18
1<
0@
1D
1F
#11
b111 #
0$
1%
0&
1(
1)
1*
1-
1/
10
b0111 1
b1101 2
b0100 4
17
08
19
1:
1>
1@
1A
1B
1C
0D
0F
#12
b110 #
0%
0'
0(
0*
1+
1,
b0110 1
b1010 2
b0000 4
06
07
09
0:
1=
1?
0A
0C
#13
1$
b1110 1
b0011 2
b0001 4
17
18
1D
0E
#14
b111 #
0$
1%
1&
b0011 1
b1111 2
b0010 4
16
08
19
1:
0@
1A
0D
1E
#15
b000 #
1$
0%
1'
0)
0+
0,
0-
0/
00
b1001 1
b1010 2
b0011 4
07
18
09
0:
0<
0>
0?
0A
0B
1D
1F
#16
b110 #
0$
0&
0'
1)
1+
1,
1-
1.
b0110 1
b0010 2
b1000 4
05
06
08
1<
1>
1?
1@
1B
0D
0E
0F
#17
b111 #
1%
1'
1(
1*
0+
0,
0.
1/
10
b1101 1
b0111 2
b0100 4
15
16
17
19
1:
0<
0?
1A
1C
1D
#18
b000 #
1$
0%
0'
0(
0)
0*
0-
1.
00
b0001 1
b1000 2
b1001 4
05
07
18
09
0:
0=
0>
0@
0A
0B
0C
0D
1E
